tb/buggy_v1/aes.vcd
$date
	Thu Jun  5 19:34:28 2025
$end
$version
	Icarus Verilog
$end
$timescale
	1ps
$end
$scope module tb_aes_cipher_top $end
$var wire 128 ! text_out [127:0] $end
$var wire 1 " done $end
$var reg 1 # clk $end
$var reg 128 $ key [127:0] $end
$var reg 1 % ld $end
$var reg 1 & rst $end
$var reg 128 ' text_in [127:0] $end
$var integer 32 ( i [31:0] $end
$var integer 32 ) pass_count [31:0] $end
$var integer 32 * total_tests [31:0] $end
$scope module uut $end
$var wire 1 # clk $end
$var wire 128 + key [127:0] $end
$var wire 1 % ld $end
$var wire 1 & rst $end
$var wire 8 , sa00_next [7:0] $end
$var wire 8 - sa00_sr [7:0] $end
$var wire 8 . sa01_next [7:0] $end
$var wire 8 / sa01_sr [7:0] $end
$var wire 8 0 sa02_next [7:0] $end
$var wire 8 1 sa02_sr [7:0] $end
$var wire 8 2 sa03_next [7:0] $end
$var wire 8 3 sa03_sr [7:0] $end
$var wire 8 4 sa10_next [7:0] $end
$var wire 8 5 sa10_sr [7:0] $end
$var wire 8 6 sa11_next [7:0] $end
$var wire 8 7 sa11_sr [7:0] $end
$var wire 8 8 sa12_next [7:0] $end
$var wire 8 9 sa12_sr [7:0] $end
$var wire 8 : sa13_next [7:0] $end
$var wire 8 ; sa13_sr [7:0] $end
$var wire 8 < sa20_next [7:0] $end
$var wire 8 = sa20_sr [7:0] $end
$var wire 8 > sa21_next [7:0] $end
$var wire 8 ? sa21_sr [7:0] $end
$var wire 8 @ sa22_next [7:0] $end
$var wire 8 A sa22_sr [7:0] $end
$var wire 8 B sa23_next [7:0] $end
$var wire 8 C sa23_sr [7:0] $end
$var wire 8 D sa30_next [7:0] $end
$var wire 8 E sa30_sr [7:0] $end
$var wire 8 F sa31_next [7:0] $end
$var wire 8 G sa31_sr [7:0] $end
$var wire 8 H sa32_next [7:0] $end
$var wire 8 I sa32_sr [7:0] $end
$var wire 8 J sa33_next [7:0] $end
$var wire 8 K sa33_sr [7:0] $end
$var wire 128 L text_in [127:0] $end
$var wire 32 M w0 [31:0] $end
$var wire 32 N w1 [31:0] $end
$var wire 32 O w2 [31:0] $end
$var wire 32 P w3 [31:0] $end
$var wire 8 Q sa33_sub [7:0] $end
$var wire 8 R sa33_mc [7:0] $end
$var wire 8 S sa32_sub [7:0] $end
$var wire 8 T sa32_mc [7:0] $end
$var wire 8 U sa31_sub [7:0] $end
$var wire 8 V sa31_mc [7:0] $end
$var wire 8 W sa30_sub [7:0] $end
$var wire 8 X sa30_mc [7:0] $end
$var wire 8 Y sa23_sub [7:0] $end
$var wire 8 Z sa23_mc [7:0] $end
$var wire 8 [ sa22_sub [7:0] $end
$var wire 8 \ sa22_mc [7:0] $end
$var wire 8 ] sa21_sub [7:0] $end
$var wire 8 ^ sa21_mc [7:0] $end
$var wire 8 _ sa20_sub [7:0] $end
$var wire 8 ` sa20_mc [7:0] $end
$var wire 8 a sa13_sub [7:0] $end
$var wire 8 b sa13_mc [7:0] $end
$var wire 8 c sa12_sub [7:0] $end
$var wire 8 d sa12_mc [7:0] $end
$var wire 8 e sa11_sub [7:0] $end
$var wire 8 f sa11_mc [7:0] $end
$var wire 8 g sa10_sub [7:0] $end
$var wire 8 h sa10_mc [7:0] $end
$var wire 8 i sa03_sub [7:0] $end
$var wire 8 j sa03_mc [7:0] $end
$var wire 8 k sa02_sub [7:0] $end
$var wire 8 l sa02_mc [7:0] $end
$var wire 8 m sa01_sub [7:0] $end
$var wire 8 n sa01_mc [7:0] $end
$var wire 8 o sa00_sub [7:0] $end
$var wire 8 p sa00_mc [7:0] $end
$var reg 4 q dcnt [3:0] $end
$var reg 1 " done $end
$var reg 1 r ld_r $end
$var reg 8 s sa00 [7:0] $end
$var reg 8 t sa01 [7:0] $end
$var reg 8 u sa02 [7:0] $end
$var reg 8 v sa03 [7:0] $end
$var reg 8 w sa10 [7:0] $end
$var reg 8 x sa11 [7:0] $end
$var reg 8 y sa12 [7:0] $end
$var reg 8 z sa13 [7:0] $end
$var reg 8 { sa20 [7:0] $end
$var reg 8 | sa21 [7:0] $end
$var reg 8 } sa22 [7:0] $end
$var reg 8 ~ sa23 [7:0] $end
$var reg 8 !" sa30 [7:0] $end
$var reg 8 "" sa31 [7:0] $end
$var reg 8 #" sa32 [7:0] $end
$var reg 8 $" sa33 [7:0] $end
$var reg 128 %" text_in_r [127:0] $end
$var reg 128 &" text_out [127:0] $end
$scope function mix_col $end
$var reg 8 '" s0 [7:0] $end
$var reg 8 (" s1 [7:0] $end
$var reg 8 )" s2 [7:0] $end
$var reg 8 *" s3 [7:0] $end
$upscope $end
$scope function xtime $end
$var reg 8 +" b [7:0] $end
$upscope $end
$scope module u0 $end
$var wire 1 # clk $end
$var wire 128 ," key [127:0] $end
$var wire 1 % kld $end
$var wire 32 -" tmp_w [31:0] $end
$var wire 32 ." wo_0 [31:0] $end
$var wire 32 /" wo_1 [31:0] $end
$var wire 32 0" wo_2 [31:0] $end
$var wire 32 1" wo_3 [31:0] $end
$var wire 32 2" subword [31:0] $end
$var wire 32 3" rcon [31:0] $end
$scope module r0 $end
$var wire 1 # clk $end
$var wire 1 % kld $end
$var wire 4 4" rcnt_next [3:0] $end
$var reg 32 5" out [31:0] $end
$var reg 4 6" rcnt [3:0] $end
$scope function frcon $end
$var reg 4 7" i [3:0] $end
$upscope $end
$upscope $end
$scope module u0 $end
$var wire 8 8" a [7:0] $end
$var reg 8 9" d [7:0] $end
$upscope $end
$scope module u1 $end
$var wire 8 :" a [7:0] $end
$var reg 8 ;" d [7:0] $end
$upscope $end
$scope module u2 $end
$var wire 8 <" a [7:0] $end
$var reg 8 =" d [7:0] $end
$upscope $end
$scope module u3 $end
$var wire 8 >" a [7:0] $end
$var reg 8 ?" d [7:0] $end
$upscope $end
$upscope $end
$scope module us00 $end
$var wire 8 @" a [7:0] $end
$var reg 8 A" d [7:0] $end
$upscope $end
$scope module us01 $end
$var wire 8 B" a [7:0] $end
$var reg 8 C" d [7:0] $end
$upscope $end
$scope module us02 $end
$var wire 8 D" a [7:0] $end
$var reg 8 E" d [7:0] $end
$upscope $end
$scope module us03 $end
$var wire 8 F" a [7:0] $end
$var reg 8 G" d [7:0] $end
$upscope $end
$scope module us10 $end
$var wire 8 H" a [7:0] $end
$var reg 8 I" d [7:0] $end
$upscope $end
$scope module us11 $end
$var wire 8 J" a [7:0] $end
$var reg 8 K" d [7:0] $end
$upscope $end
$scope module us12 $end
$var wire 8 L" a [7:0] $end
$var reg 8 M" d [7:0] $end
$upscope $end
$scope module us13 $end
$var wire 8 N" a [7:0] $end
$var reg 8 O" d [7:0] $end
$upscope $end
$scope module us20 $end
$var wire 8 P" a [7:0] $end
$var reg 8 Q" d [7:0] $end
$upscope $end
$scope module us21 $end
$var wire 8 R" a [7:0] $end
$var reg 8 S" d [7:0] $end
$upscope $end
$scope module us22 $end
$var wire 8 T" a [7:0] $end
$var reg 8 U" d [7:0] $end
$upscope $end
$scope module us23 $end
$var wire 8 V" a [7:0] $end
$var reg 8 W" d [7:0] $end
$upscope $end
$scope module us30 $end
$var wire 8 X" a [7:0] $end
$var reg 8 Y" d [7:0] $end
$upscope $end
$scope module us31 $end
$var wire 8 Z" a [7:0] $end
$var reg 8 [" d [7:0] $end
$upscope $end
$scope module us32 $end
$var wire 8 \" a [7:0] $end
$var reg 8 ]" d [7:0] $end
$upscope $end
$scope module us33 $end
$var wire 8 ^" a [7:0] $end
$var reg 8 _" d [7:0] $end
$upscope $end
$upscope $end
$upscope $end
$enddefinitions $end
#0
$dumpvars
bx _"
bx ^"
bx ]"
bx \"
bx ["
bx Z"
bx Y"
bx X"
bx W"
bx V"
bx U"
bx T"
bx S"
bx R"
bx Q"
bx P"
bx O"
bx N"
bx M"
bx L"
bx K"
bx J"
bx I"
bx H"
bx G"
bx F"
bx E"
bx D"
bx C"
bx B"
bx A"
bx @"
bx ?"
bx >"
bx ="
bx <"
bx ;"
bx :"
bx 9"
bx 8"
bx 7"
bx 6"
bx 5"
bx 4"
bx 3"
bx 2"
bx 1"
bx 0"
bx /"
bx ."
bx -"
bx ,"
bx +"
bx *"
bx )"
bx ("
bx '"
bx &"
bx %"
bx $"
bx #"
bx ""
bx !"
bx ~
bx }
bx |
bx {
bx z
bx y
bx x
bx w
bx v
bx u
bx t
bx s
xr
bx q
bx p
bx o
bx n
bx m
bx l
bx k
bx j
bx i
bx h
bx g
bx f
bx e
bx d
bx c
bx b
bx a
bx `
bx _
bx ^
bx ]
bx \
bx [
bx Z
bx Y
bx X
bx W
bx V
bx U
bx T
bx S
bx R
bx Q
bx P
bx O
bx N
bx M
bx L
bx K
bx J
bx I
bx H
bx G
bx F
bx E
bx D
bx C
bx B
bx A
bx @
bx ?
bx >
bx =
bx <
bx ;
bx :
bx 9
bx 8
bx 7
bx 6
bx 5
bx 4
bx 3
bx 2
bx 1
bx 0
bx /
bx .
bx -
bx ,
bx +
b100 *
b0 )
bx (
bx '
0&
0%
bx $
0#
x"
bx !
$end
#5000
1#
#6000
b0 3"
b0 5"
b0 q
0r
#10000
0#
#15000
1#
#16000
0"
#20000
0#
b0 (
1&
#25000
1%
b1101011110000011011111011100010001011100100000010011111100101101110100100111101011111100001000101110011100100110001011100101010 '
b1101011110000011011111011100010001011100100000010011111100101101110100100111101011111100001000101110011100100110001011100101010 L
b101011011111100001010100010110001010001010111011010010101001101010101111110111000101011000100000001001110011110100111100111100 $
b101011011111100001010100010110001010001010111011010010101001101010101111110111000101011000100000001001110011110100111100111100 +
b101011011111100001010100010110001010001010111011010010101001101010101111110111000101011000100000001001110011110100111100111100 ,"
1#
#30000
0#
#35000
0%
1#
#36000
b10001010 9"
b10000100 ;"
b11101011 ="
b10001010100001001110101100000001 2"
b1 ?"
b11001111 8"
b1001111 :"
b111100 <"
b1001 >"
1r
b1101011110000011011111011100010001011100100000010011111100101101110100100111101011111100001000101110011100100110001011100101010 %"
b1011 q
b1001110011110100111100111100 P
b1001110011110100111100111100 1"
b1001110011110100111100111100 -"
b10101011111101110001010110001000 O
b10101011111101110001010110001000 0"
b101000101011101101001010100110 N
b101000101011101101001010100110 /"
b101011011111100001010100010110 M
b101011011111100001010100010110 ."
b1 4"
b0 6"
b1000000000000000000000000 3"
b1000000000000000000000000 5"
#40000
0#
#45000
b1 7"
1#
#46000
b1111011 F
b111001 >
b11010010 6
b11111 .
b1101101 H
b10010111 @
b10111001 8
b11000011 0
b1011100 J
b1010000 B
b1110110 :
b10010000 2
b1011100 D
b1100110 <
b11101011 4
b11110101 ,
b11001010 V
b10101 ^
b10000110 f
b10010111 n
b1010100 T
b10101110 \
b11010 d
b11100000 l
b1011001 R
b100110 Z
b11010 b
b10111010 j
b1001011 X
b10011000 `
b10001 h
b1010101 p
b1010000 9"
b111000 ;"
b1101011 ="
b1010000001110000110101111100101 2"
b11100101 ?"
b10111111 +"
b10111111 *"
b1101010 )"
b1110100 ("
b1101111 '"
b1101100 8"
b1110110 :"
b101 <"
b101010 >"
b1000111 E
b1000111 Q
b1000111 _"
b1101010 ?
b1101010 Y
b1101010 W"
b1001010 9
b1001010 a
b1001010 O"
b11011010 3
b11011010 i
b11011010 G"
b11101110 K
b11101110 S
b11101110 ]"
b1111111 =
b1111111 [
b1111111 U"
b1110100 7
b1110100 c
b1110100 M"
b101100 1
b101100 k
b101100 E"
b100 I
b100 U
b100 ["
b11100011 C
b11100011 ]
b11100011 S"
b101000 5
b101000 e
b101000 K"
b1101111 /
b1101111 m
b1101111 C"
b10111111 G
b10111111 W
b10111111 Y"
b1100010 A
b1100010 _
b1100010 Q"
b1000 ;
b1000 g
b1000 I"
b10000111 -
b10000111 o
b10000111 A"
b10000000000000000000000000 3"
b10000000000000000000000000 5"
b10 4"
b1 6"
b10100000111110101111111000010111 M
b10100000111110101111111000010111 ."
b10001000010101000010110010110001 N
b10001000010101000010110010110001 /"
b100011101000110011100100111001 O
b100011101000110011100100111001 0"
b101010011011000111011000000101 P
b101010011011000111011000000101 1"
b101010011011000111011000000101 -"
b1010 q
0r
b10110 $"
b10110 ^"
b1011000 ~
b1011000 V"
b1011100 z
b1011100 N"
b1111010 v
b1111010 F"
b10011001 #"
b10011001 \"
b1101011 }
b1101011 T"
b11001010 y
b11001010 L"
b1000010 u
b1000010 D"
b110000 ""
b110000 Z"
b1001101 |
b1001101 R"
b11101110 x
b11101110 J"
b110 t
b110 B"
b11110100 !"
b11110100 X"
b10101011 {
b10101011 P"
b10111111 w
b10111111 H"
b11101010 s
b11101010 @"
#50000
0#
#55000
b10 7"
1#
#56000
b100011 R
b11101001 Z
b10100011 b
b11001110 j
b111011 T
b10011 \
b101010 d
b110 l
b11101110 ^
b11010011 f
b1111000 n
b10011000 X
b10000110 `
b1011110 h
b11010001 p
b111100 +"
b111100 *"
b10010 )"
b11101001 ("
b1100000 '"
b1011100 J
b11111 B
b11111010 :
b10111101 2
b11001011 9"
b1000010 ;"
b11010010 ="
b11001011010000101101001010001111 2"
b10001111 ?"
b1011111 0
b11111 8
b10010011 @
b1000001 H
b10 .
b1000101 6
b1010111 >
b10001001 F
b100011 ,
b10011100 4
b10011 <
b1101010 D
b11100110 -
b11100110 o
b11100110 A"
b11101001 ;
b11101001 g
b11101001 I"
b110011 A
b110011 _
b110011 Q"
b1001010 G
b1001010 W
b1001010 Y"
b11000000 /
b11000000 m
b11000000 C"
b10110101 5
b10110101 e
b10110101 K"
b10010 C
b10010 ]
b10010 S"
b100001 I
b100001 U
b100001 ["
b101110 1
b101110 k
b101110 E"
b1010110 7
b1010110 c
b1010110 M"
b10001000 =
b10001000 [
b10001000 U"
b111100 K
b111100 S
b111100 ]"
b1100000 3
b1100000 i
b1100000 G"
b111000 9
b111000 a
b111000 O"
b1010011 ?
b1010011 Y
b1010011 W"
b1001010 E
b1001010 Q
b1001010 _"
b1011001 8"
b11110110 :"
b1111111 <"
b1110011 >"
b100111110100101000000101010000111001110010000001000110000011100000111111101001010110110011110111110000011001001001010111101011 !
b100111110100101000000101010000111001110010000001000110000011100000111111101001010110110011110111110000011001001001010111101011 &"
b11110101 s
b11110101 @"
b11101011 w
b11101011 H"
b1100110 {
b1100110 P"
b1011100 !"
b1011100 X"
b11111 t
b11111 B"
b11010010 x
b11010010 J"
b111001 |
b111001 R"
b1111011 ""
b1111011 Z"
b11000011 u
b11000011 D"
b10111001 y
b10111001 L"
b10010111 }
b10010111 T"
b1101101 #"
b1101101 \"
b10010000 v
b10010000 F"
b1110110 z
b1110110 N"
b1010000 ~
b1010000 V"
b1011100 $"
b1011100 ^"
b1001 q
b1110011010110011111011001111111 P
b1110011010110011111011001111111 1"
b1110011010110011111011001111111 -"
b1011001001101011000000001111010 O
b1011001001101011000000001111010 0"
b1111010100101101011100101000011 N
b1111010100101101011100101000011 /"
b11110010110000101001010111110010 M
b11110010110000101001010111110010 ."
b11 4"
b10 6"
b100000000000000000000000000 3"
b100000000000000000000000000 5"
#60000
0#
#65000
b11 7"
1#
#66000
b10011101 V
b101010 ^
b10110101 f
b1110111 n
b1001111 T
b11101010 \
b10110101 d
b101000 l
b10110 R
b10001100 Z
b10110011 b
b1010101 j
b1001100 X
b110101 `
b11001111 h
b1101000 p
b1010101 ,
b1001111 4
b1110010 <
b110001 D
b110000 .
b10100011 6
b11010100 >
b10100011 F
b110110 0
b10010110 8
b10010100 @
b1011 H
b101101 J
b100 B
b11001001 :
b111000 2
b11011010 9"
b11000100 ;"
b11100010 ="
b11011010110001001110001000111100 2"
b111100 ?"
b10 +"
b10 *"
b11000000 )"
b11000000 ("
b1110111 '"
b1111010 8"
b10001000 :"
b111011 <"
b1101101 >"
b11000000 ?
b11000000 Y
b11000000 W"
b101101 9
b101101 a
b101101 O"
b1111010 3
b1111010 i
b1111010 G"
b10000011 K
b10000011 S
b10000011 ]"
b11011100 =
b11011100 [
b11011100 U"
b11000000 7
b11000000 c
b11000000 M"
b11001111 1
b11001111 k
b11001111 E"
b10100111 I
b10100111 U
b10100111 ["
b1011011 C
b1011011 ]
b1011011 S"
b1101110 5
b1101110 e
b1101110 K"
b1110111 /
b1110111 m
b1110111 C"
b10 G
b10 W
b10 Y"
b1111101 A
b1111101 _
b1111101 Q"
b11011110 ;
b11011110 g
b11011110 I"
b100110 -
b100110 o
b100110 A"
b1000000000000000000000000000 3"
b1000000000000000000000000000 5"
b100 4"
b11 6"
b111101100000000100011101111101 M
b111101100000000100011101111101 ."
b1000111000101101111111000111110 N
b1000111000101101111111000111110 /"
b11110001000110111111001000100 O
b11110001000110111111001000100 0"
b1101101011110101000100000111011 P
b1101101011110101000100000111011 1"
b1101101011110101000100000111011 -"
b1000 q
b11111 ~
b11111 V"
b11111010 z
b11111010 N"
b10111101 v
b10111101 F"
b1000001 #"
b1000001 \"
b10010011 }
b10010011 T"
b11111 y
b11111 L"
b1011111 u
b1011111 D"
b10001001 ""
b10001001 Z"
b1010111 |
b1010111 R"
b1000101 x
b1000101 J"
b10 t
b10 B"
b1101010 !"
b1101010 X"
b10011 {
b10011 P"
b10011100 w
b10011100 H"
b100011 s
b100011 @"
b10100011101110001110110111000101110101100000011101010000010010111011100001101101100110101101100010011101100001110010001000011 !
b10100011101110001110110111000101110101100000011101010000010010111011100001101101100110101101100010011101100001110010001000011 &"
#70000
0#
#75000
b100 7"
1#
#76000
b10010011 R
b1101110 Z
b11100111 b
b11111010 j
b10000110 T
b1000110 \
b1101110 d
b111100 l
b11111011 V
b111001 ^
b11110101 f
b10010110 n
b10011100 X
b11000001 `
b1010110 h
b111 p
b101011 +"
b101011 *"
b1001000 )"
b10000100 ("
b111 '"
b10010011 J
b11000011 B
b11101100 :
b100001 2
b101011 9"
b10010101 ;"
b1100011 ="
b101011100101010110001110111001 2"
b10111001 ?"
b10001010 0
b11111 8
b1100011 @
b10111101 H
b111110 .
b10100111 6
b1100010 >
b10000100 F
b11101000 ,
b10010 4
b1100100 <
b11011101 D
b11111100 -
b11111100 o
b11111100 A"
b10000100 ;
b10000100 g
b10000100 I"
b1000000 A
b1000000 _
b1000000 Q"
b11000111 G
b11000111 W
b11000111 Y"
b100 /
b100 m
b100 C"
b1010 5
b1010 e
b1010 K"
b1001000 C
b1001000 ]
b1001000 S"
b1010 I
b1010 U
b1010 ["
b101 1
b101 k
b101 E"
b10010000 7
b10010000 c
b10010000 M"
b100010 =
b100010 [
b100010 U"
b101011 K
b101011 S
b101011 ]"
b111 3
b111 i
b111 G"
b11011101 9
b11011101 a
b11011101 O"
b11110010 ?
b11110010 Y
b11110010 W"
b11011000 E
b11011000 Q
b11011000 _"
b1011 8"
b10101101 :"
b0 <"
b11011011 >"
b11011111011101001101100110111001100001101011000111110001111001101000100001110000000111110001100010111101001001101001110111000 !
b11011111011101001101100110111001100001101011000111110001111001101000100001110000000111110001100010111101001001101001110111000 &"
b1010101 s
b1010101 @"
b1001111 w
b1001111 H"
b1110010 {
b1110010 P"
b110001 !"
b110001 X"
b110000 t
b110000 B"
b10100011 x
b10100011 J"
b11010100 |
b11010100 R"
b10100011 ""
b10100011 Z"
b110110 u
b110110 D"
b10010110 y
b10010110 L"
b10010100 }
b10010100 T"
b1011 #"
b1011 \"
b111000 v
b111000 F"
b11001001 z
b11001001 N"
b100 ~
b100 V"
b101101 $"
b101101 ^"
b111 q
b11011011000010111010110100000000 P
b11011011000010111010110100000000 1"
b11011011000010111010110100000000 -"
b10110110011100010010010100111011 O
b10110110011100010010010100111011 0"
b10101000010100100101101101111111 N
b10101000010100100101101101111111 /"
b11101111010001001010010101000001 M
b11101111010001001010010101000001 ."
b101 4"
b100 6"
b10000000000000000000000000000 3"
b10000000000000000000000000000 5"
#80000
0#
#85000
b101 7"
1#
#86000
b10111010 V
b1110110 ^
b10011010 f
b11001011 n
b10110001 T
b11010111 \
b1100011 d
b10101001 l
b10001011 R
b11110101 Z
b11101011 b
b1110001 j
b10110010 X
b1010101 `
b11101001 h
b11101110 p
b111010 ,
b111000 4
b10010011 <
b1001010 D
b10110111 .
b11001 6
b11101011 >
b111101 F
b1100011 0
b10010001 8
b1101111 @
b1101 H
b110111 J
b11100000 B
b10010 :
b1100000 2
b10011001 9"
b1011001 ;"
b1100101 ="
b10011001010110010110010110000010 2"
b10000010 ?"
b11000001 +"
b11000001 *"
b101110 )"
b11000000 ("
b10110010 '"
b11111001 8"
b10101 :"
b10111100 <"
b10001 >"
b11011100 E
b11011100 Q
b11011100 _"
b101110 ?
b101110 Y
b101110 W"
b11001110 9
b11001110 a
b11001110 O"
b11111101 3
b11111101 i
b11111101 G"
b1111010 K
b1111010 S
b1111010 ]"
b11111011 =
b11111011 [
b11111011 U"
b11000000 7
b11000000 c
b11000000 M"
b1111110 1
b1111110 k
b1111110 E"
b1011111 I
b1011111 U
b1011111 ["
b10101010 C
b10101010 ]
b10101010 S"
b1011100 5
b1011100 e
b1011100 K"
b10110010 /
b10110010 m
b10110010 C"
b11000001 G
b11000001 W
b11000001 Y"
b1000011 A
b1000011 _
b1000011 Q"
b11001001 ;
b11001001 g
b11001001 I"
b10011011 -
b10011011 o
b10011011 A"
b100000000000000000000000000000 3"
b100000000000000000000000000000 5"
b110 4"
b101 6"
b11010100110100011100011011111000 M
b11010100110100011100011011111000 ."
b1111100100000111001110110000111 N
b1111100100000111001110110000111 /"
b11001010111100101011100010111100 O
b11001010111100101011100010111100 0"
b10001111110010001010110111100 P
b10001111110010001010110111100 1"
b10001111110010001010110111100 -"
b110 q
b10010011 $"
b10010011 ^"
b11000011 ~
b11000011 V"
b11101100 z
b11101100 N"
b100001 v
b100001 F"
b10111101 #"
b10111101 \"
b1100011 }
b1100011 T"
b11111 y
b11111 L"
b10001010 u
b10001010 D"
b10000100 ""
b10000100 Z"
b1100010 |
b1100010 R"
b10100111 x
b10100111 J"
b111110 t
b111110 B"
b11011101 !"
b11011101 X"
b1100100 {
b1100100 P"
b10010 w
b10010 H"
b11101000 s
b11101000 @"
b10011010011101000011110011001101011001100001010101001101110001011001110101100011001010011000111011100100011111110010100101011 !
b10011010011101000011110011001101011001100001010101001101110001011001110101100011001010011000111011100100011111110010100101011 &"
#90000
0#
#95000
b110 7"
1#
#96000
b110000 R
b1111100 Z
b101001 b
b10001100 j
b1001101 T
b11111000 \
b101010 d
b1010110 l
b110111 V
b10010000 ^
b1011110 f
b11100110 n
b11001000 X
b10101010 `
b1001010 h
b1001110 p
b11010111 +"
b11010111 *"
b11101001 )"
b111 ("
b11010000 '"
b11001101 J
b11101111 B
b101001 :
b1000110 2
b1100011 9"
b11011100 ;"
b1010100 ="
b1100011110111000101010001110100 2"
b1110100 ?"
b10001101 0
b11010011 8
b1111110 @
b1100 H
b11110111 .
b1010101 6
b10101110 >
b11001010 F
b100011 ,
b11000010 4
b1001 <
b10110010 D
b10000000 -
b10000000 o
b10000000 A"
b111 ;
b111 g
b111 I"
b11011100 A
b11011100 _
b11011100 Q"
b11010110 G
b11010110 W
b11010110 Y"
b10101001 /
b10101001 m
b10101001 C"
b11010100 5
b11010100 e
b11010100 K"
b11101001 C
b11101001 ]
b11101001 S"
b100111 I
b100111 U
b100111 ["
b11111011 1
b11111011 k
b11111011 E"
b10000001 7
b10000001 c
b10000001 M"
b10101000 =
b10101000 [
b10101000 U"
b11010111 K
b11010111 S
b11010111 ]"
b11010000 3
b11010000 i
b11010000 G"
b11001001 9
b11001001 a
b11001001 O"
b11100001 ?
b11100001 Y
b11100001 W"
b10011010 E
b10011010 Q
b10011010 _"
b0 8"
b10010011 :"
b11111101 <"
b11001010 >"
b1001111100011010011110100100100110011100100001110110011010001101011010000111100111110111110001111101100001100001011111111000110 !
b1001111100011010011110100100100110011100100001110110011010001101011010000111100111110111110001111101100001100001011111111000110 &"
b111010 s
b111010 @"
b111000 w
b111000 H"
b10010011 {
b10010011 P"
b1001010 !"
b1001010 X"
b10110111 t
b10110111 B"
b11001 x
b11001 J"
b11101011 |
b11101011 R"
b111101 ""
b111101 Z"
b1100011 u
b1100011 D"
b10010001 y
b10010001 L"
b1101111 }
b1101111 T"
b1101 #"
b1101 \"
b1100000 v
b1100000 F"
b10010 z
b10010 N"
b11100000 ~
b11100000 V"
b110111 $"
b110111 ^"
b101 q
b11001010000000001001001111111101 P
b11001010000000001001001111111101 1"
b11001010000000001001001111111101 -"
b11011011111110011000011001000001 O
b11011011111110011000011001000001 0"
b10001000010110011111011111101 N
b10001000010110011111011111101 /"
b1101101100010001010001101111010 M
b1101101100010001010001101111010 ."
b111 4"
b110 6"
b1000000000000000000000000000000 3"
b1000000000000000000000000000000 5"
#100000
0#
#105000
b111 7"
1#
#106000
b1101111 V
b11110010 ^
b11101001 f
b10010010 n
b10101011 T
b1100110 \
b1111011 d
b111011 l
b11001000 R
b10110101 Z
b11011001 b
b11000001 j
b100 X
b11111011 `
b1110110 h
b11101 p
b1010011 ,
b100010 4
b1100 <
b1010 D
b11001101 .
b10110110 6
b111011 >
b10011100 F
b10111111 0
b11011101 8
b101001 @
b11001 H
b10000111 J
b1101001 B
b1111111 :
b10001111 2
b100100 9"
b10000110 ;"
b10000100 ="
b100100100001101000010000101111 2"
b101111 ?"
b110111 +"
b110111 *"
b11011111 )"
b1100110 ("
b1101000 '"
b10100110 8"
b11011100 :"
b1001111 <"
b1001110 >"
b10111101 E
b10111101 Q
b10111101 _"
b11011111 ?
b11011111 Y
b11011111 W"
b10100101 9
b10100101 a
b10100101 O"
b1011010 3
b1011010 i
b1011010 G"
b11111110 K
b11111110 S
b11111110 ]"
b11110011 =
b11110011 [
b11110011 U"
b1100110 7
b1100110 c
b1100110 M"
b1011101 1
b1011101 k
b1011101 E"
b1110100 I
b1110100 U
b1110100 ["
b11100100 C
b11100100 ]
b11100100 S"
b11111100 5
b11111100 e
b11111100 K"
b1101000 /
b1101000 m
b1101000 C"
b110111 G
b110111 W
b110111 Y"
b1 A
b1 _
b1 Q"
b100101 ;
b100101 g
b100101 I"
b100110 -
b100110 o
b100110 A"
b10000000000000000000000000000000 3"
b10000000000000000000000000000000 5"
b1000 4"
b111 6"
b1001110010101001111011100001110 M
b1001110010101001111011100001110 ."
b1011111010111111100100111110011 N
b1011111010111111100100111110011 /"
b10000100101001100100111110110010 O
b10000100101001100100111110110010 0"
b1001110101001101101110001001111 P
b1001110101001101101110001001111 1"
b1001110101001101101110001001111 -"
b100 q
b11001101 $"
b11001101 ^"
b11101111 ~
b11101111 V"
b101001 z
b101001 N"
b1000110 v
b1000110 F"
b1100 #"
b1100 \"
b1111110 }
b1111110 T"
b11010011 y
b11010011 L"
b10001101 u
b10001101 D"
b11001010 ""
b11001010 Z"
b10101110 |
b10101110 R"
b1010101 x
b1010101 J"
b11110111 t
b11110111 B"
b10110010 !"
b10110010 X"
b1001 {
b1001 P"
b11000010 w
b11000010 H"
b100011 s
b100011 @"
b11101101010111000000101111100000101110001000101011011111001010110010000000110000010110100110011000011010000001110111101000101010 !
b11101101010111000000101111100000101110001000101011011111001010110010000000110000010110100110011000011010000001110111101000101010 &"
#110000
0#
#115000
b1000 7"
1#
#116000
b1010111 R
b1011000 Z
b10100111 b
b1111110 j
b10010011 T
b1000100 \
b1110000 d
b1011101 l
b101010 V
b111100 ^
b1010011 f
b10100111 n
b11101001 X
b11001011 `
b10010010 h
b10100001 p
b11010100 +"
b11010100 *"
b11100010 )"
b10010011 ("
b1110011 '"
b1111000 J
b1110001 B
b101010 :
b1 2
b1011101 9"
b10100101 ;"
b10101 ="
b1011101101001010001010111010010 2"
b11010010 ?"
b1101100 0
b1011011 8
b10110001 @
b11110011 H
b10010 .
b11011110 6
b10000110 >
b11111000 F
b1001011 ,
b1000000 4
b10111000 <
b11001000 D
b11101101 -
b11101101 o
b11101101 A"
b10010011 ;
b10010011 g
b10010011 I"
b11111110 A
b11111110 _
b11111110 Q"
b1100111 G
b1100111 W
b1100111 Y"
b10111101 /
b10111101 m
b10111101 C"
b1001110 5
b1001110 e
b1001110 K"
b11100010 C
b11100010 ]
b11100010 S"
b11011110 I
b11011110 U
b11011110 ["
b1000 1
b1000 k
b1000 E"
b11000001 7
b11000001 c
b11000001 M"
b10100101 =
b10100101 [
b10100101 U"
b11010100 K
b11010100 S
b11010100 ]"
b1110011 3
b1110011 i
b1110011 G"
b11010010 9
b11010010 a
b11010010 O"
b11111001 ?
b11111001 Y
b11111001 W"
b10111 E
b10111 Q
b10111 _"
b10001101 8"
b101001 :"
b101111 <"
b1111111 >"
b1101000101010000000010010110011001101110011100100010110110001001101100100000011010011101100011000010100100000110011100010110001 !
b1101000101010000000010010110011001101110011100100010110110001001101100100000011010011101100011000010100100000110011100010110001 &"
b1010011 s
b1010011 @"
b100010 w
b100010 H"
b1100 {
b1100 P"
b1010 !"
b1010 X"
b11001101 t
b11001101 B"
b10110110 x
b10110110 J"
b111011 |
b111011 R"
b10011100 ""
b10011100 Z"
b10111111 u
b10111111 D"
b11011101 y
b11011101 L"
b101001 }
b101001 T"
b11001 #"
b11001 \"
b10001111 v
b10001111 F"
b1111111 z
b1111111 N"
b1101001 ~
b1101001 V"
b10000111 $"
b10000111 ^"
b11 q
b1111111100011010010100100101111 P
b1111111100011010010100100101111 1"
b1111111100011010010100100101111 -"
b110001001010111111010101100000 O
b110001001010111111010101100000 0"
b10110101100011011011101011010010 N
b10110101100011011011101011010010 /"
b11101010110100100111001100100001 M
b11101010110100100111001100100001 ."
b1001 4"
b1000 6"
b11011000000000000000000000000 3"
b11011000000000000000000000000 5"
#120000
0#
#125000
b1001 7"
1#
