ICLAD-Hackathon-2025/problem-categories/Qualcomm-Problems/buggy_rtl/team_8/aes_bug_v2/aes.vcd
$date
	Sun Jun 22 16:59:58 2025
$end
$version
	Icarus Verilog
$end
$timescale
	1ps
$end
$scope module tb_aes_cipher_top $end
$var wire 128 ! text_out [127:0] $end
$var wire 1 " done $end
$var reg 1 # clk $end
$var reg 128 $ key [127:0] $end
$var reg 1 % ld $end
$var reg 1 & rst $end
$var reg 128 ' text_in [127:0] $end
$var integer 32 ( i [31:0] $end
$var integer 32 ) pass_count [31:0] $end
$var integer 32 * total_tests [31:0] $end
$scope module uut $end
$var wire 1 # clk $end
$var wire 128 + key [127:0] $end
$var wire 1 % ld $end
$var wire 1 & rst $end
$var wire 8 , sa00_next [7:0] $end
$var wire 8 - sa00_sr [7:0] $end
$var wire 8 . sa01_next [7:0] $end
$var wire 8 / sa01_sr [7:0] $end
$var wire 8 0 sa02_next [7:0] $end
$var wire 8 1 sa02_sr [7:0] $end
$var wire 8 2 sa03_next [7:0] $end
$var wire 8 3 sa03_sr [7:0] $end
$var wire 8 4 sa10_next [7:0] $end
$var wire 8 5 sa10_sr [7:0] $end
$var wire 8 6 sa11_next [7:0] $end
$var wire 8 7 sa11_sr [7:0] $end
$var wire 8 8 sa12_next [7:0] $end
$var wire 8 9 sa12_sr [7:0] $end
$var wire 8 : sa13_next [7:0] $end
$var wire 8 ; sa13_sr [7:0] $end
$var wire 8 < sa20_next [7:0] $end
$var wire 8 = sa20_sr [7:0] $end
$var wire 8 > sa21_next [7:0] $end
$var wire 8 ? sa21_sr [7:0] $end
$var wire 8 @ sa22_next [7:0] $end
$var wire 8 A sa22_sr [7:0] $end
$var wire 8 B sa23_next [7:0] $end
$var wire 8 C sa23_sr [7:0] $end
$var wire 8 D sa30_next [7:0] $end
$var wire 8 E sa30_sr [7:0] $end
$var wire 8 F sa31_next [7:0] $end
$var wire 8 G sa31_sr [7:0] $end
$var wire 8 H sa32_next [7:0] $end
$var wire 8 I sa32_sr [7:0] $end
$var wire 8 J sa33_next [7:0] $end
$var wire 8 K sa33_sr [7:0] $end
$var wire 128 L text_in [127:0] $end
$var wire 32 M w0 [31:0] $end
$var wire 32 N w1 [31:0] $end
$var wire 32 O w2 [31:0] $end
$var wire 32 P w3 [31:0] $end
$var wire 8 Q sa33_sub [7:0] $end
$var wire 8 R sa33_mc [7:0] $end
$var wire 8 S sa32_sub [7:0] $end
$var wire 8 T sa32_mc [7:0] $end
$var wire 8 U sa31_sub [7:0] $end
$var wire 8 V sa31_mc [7:0] $end
$var wire 8 W sa30_sub [7:0] $end
$var wire 8 X sa30_mc [7:0] $end
$var wire 8 Y sa23_sub [7:0] $end
$var wire 8 Z sa23_mc [7:0] $end
$var wire 8 [ sa22_sub [7:0] $end
$var wire 8 \ sa22_mc [7:0] $end
$var wire 8 ] sa21_sub [7:0] $end
$var wire 8 ^ sa21_mc [7:0] $end
$var wire 8 _ sa20_sub [7:0] $end
$var wire 8 ` sa20_mc [7:0] $end
$var wire 8 a sa13_sub [7:0] $end
$var wire 8 b sa13_mc [7:0] $end
$var wire 8 c sa12_sub [7:0] $end
$var wire 8 d sa12_mc [7:0] $end
$var wire 8 e sa11_sub [7:0] $end
$var wire 8 f sa11_mc [7:0] $end
$var wire 8 g sa10_sub [7:0] $end
$var wire 8 h sa10_mc [7:0] $end
$var wire 8 i sa03_sub [7:0] $end
$var wire 8 j sa03_mc [7:0] $end
$var wire 8 k sa02_sub [7:0] $end
$var wire 8 l sa02_mc [7:0] $end
$var wire 8 m sa01_sub [7:0] $end
$var wire 8 n sa01_mc [7:0] $end
$var wire 8 o sa00_sub [7:0] $end
$var wire 8 p sa00_mc [7:0] $end
$var reg 4 q dcnt [3:0] $end
$var reg 1 " done $end
$var reg 1 r ld_r $end
$var reg 8 s sa00 [7:0] $end
$var reg 8 t sa01 [7:0] $end
$var reg 8 u sa02 [7:0] $end
$var reg 8 v sa03 [7:0] $end
$var reg 8 w sa10 [7:0] $end
$var reg 8 x sa11 [7:0] $end
$var reg 8 y sa12 [7:0] $end
$var reg 8 z sa13 [7:0] $end
$var reg 8 { sa20 [7:0] $end
$var reg 8 | sa21 [7:0] $end
$var reg 8 } sa22 [7:0] $end
$var reg 8 ~ sa23 [7:0] $end
$var reg 8 !" sa30 [7:0] $end
$var reg 8 "" sa31 [7:0] $end
$var reg 8 #" sa32 [7:0] $end
$var reg 8 $" sa33 [7:0] $end
$var reg 128 %" text_in_r [127:0] $end
$var reg 128 &" text_out [127:0] $end
$scope function mix_col $end
$var reg 8 '" s0 [7:0] $end
$var reg 8 (" s1 [7:0] $end
$var reg 8 )" s2 [7:0] $end
$var reg 8 *" s3 [7:0] $end
$upscope $end
$scope function xtime $end
$var reg 8 +" b [7:0] $end
$upscope $end
$scope module u0 $end
$var wire 1 # clk $end
$var wire 128 ," key [127:0] $end
$var wire 1 % kld $end
$var wire 32 -" tmp_w [31:0] $end
$var wire 32 ." wo_0 [31:0] $end
$var wire 32 /" wo_1 [31:0] $end
$var wire 32 0" wo_2 [31:0] $end
$var wire 32 1" wo_3 [31:0] $end
$var wire 32 2" subword [31:0] $end
$var wire 32 3" rcon [31:0] $end
$scope module r0 $end
$var wire 1 # clk $end
$var wire 1 % kld $end
$var wire 4 4" rcnt_next [3:0] $end
$var reg 32 5" out [31:0] $end
$var reg 4 6" rcnt [3:0] $end
$scope function frcon $end
$var reg 4 7" i [3:0] $end
$upscope $end
$upscope $end
$scope module u0 $end
$var wire 8 8" a [7:0] $end
$var reg 8 9" d [7:0] $end
$upscope $end
$scope module u1 $end
$var wire 8 :" a [7:0] $end
$var reg 8 ;" d [7:0] $end
$upscope $end
$scope module u2 $end
$var wire 8 <" a [7:0] $end
$var reg 8 =" d [7:0] $end
$upscope $end
$scope module u3 $end
$var wire 8 >" a [7:0] $end
$var reg 8 ?" d [7:0] $end
$upscope $end
$upscope $end
$scope module us00 $end
$var wire 8 @" a [7:0] $end
$var reg 8 A" d [7:0] $end
$upscope $end
$scope module us01 $end
$var wire 8 B" a [7:0] $end
$var reg 8 C" d [7:0] $end
$upscope $end
$scope module us02 $end
$var wire 8 D" a [7:0] $end
$var reg 8 E" d [7:0] $end
$upscope $end
$scope module us03 $end
$var wire 8 F" a [7:0] $end
$var reg 8 G" d [7:0] $end
$upscope $end
$scope module us10 $end
$var wire 8 H" a [7:0] $end
$var reg 8 I" d [7:0] $end
$upscope $end
$scope module us11 $end
$var wire 8 J" a [7:0] $end
$var reg 8 K" d [7:0] $end
$upscope $end
$scope module us12 $end
$var wire 8 L" a [7:0] $end
$var reg 8 M" d [7:0] $end
$upscope $end
$scope module us13 $end
$var wire 8 N" a [7:0] $end
$var reg 8 O" d [7:0] $end
$upscope $end
$scope module us20 $end
$var wire 8 P" a [7:0] $end
$var reg 8 Q" d [7:0] $end
$upscope $end
$scope module us21 $end
$var wire 8 R" a [7:0] $end
$var reg 8 S" d [7:0] $end
$upscope $end
$scope module us22 $end
$var wire 8 T" a [7:0] $end
$var reg 8 U" d [7:0] $end
$upscope $end
$scope module us23 $end
$var wire 8 V" a [7:0] $end
$var reg 8 W" d [7:0] $end
$upscope $end
$scope module us30 $end
$var wire 8 X" a [7:0] $end
$var reg 8 Y" d [7:0] $end
$upscope $end
$scope module us31 $end
$var wire 8 Z" a [7:0] $end
$var reg 8 [" d [7:0] $end
$upscope $end
$scope module us32 $end
$var wire 8 \" a [7:0] $end
$var reg 8 ]" d [7:0] $end
$upscope $end
$scope module us33 $end
$var wire 8 ^" a [7:0] $end
$var reg 8 _" d [7:0] $end
$upscope $end
$upscope $end
$upscope $end
$enddefinitions $end
#0
$dumpvars
bx _"
bx ^"
bx ]"
bx \"
bx ["
bx Z"
bx Y"
bx X"
bx W"
bx V"
bx U"
bx T"
bx S"
bx R"
bx Q"
bx P"
bx O"
bx N"
bx M"
bx L"
bx K"
bx J"
bx I"
bx H"
bx G"
bx F"
bx E"
bx D"
bx C"
bx B"
bx A"
bx @"
bx ?"
bx >"
bx ="
bx <"
bx ;"
bx :"
bx 9"
bx 8"
bx 7"
bx 6"
bx 5"
bx 4"
bx 3"
bx 2"
bx 1"
bx 0"
bx /"
bx ."
bx -"
bx ,"
bx +"
bx *"
bx )"
bx ("
bx '"
bx &"
bx %"
bx $"
bx #"
bx ""
bx !"
bx ~
bx }
bx |
bx {
bx z
bx y
bx x
bx w
bx v
bx u
bx t
bx s
xr
bx q
bx p
bx o
bx n
bx m
bx l
bx k
bx j
bx i
bx h
bx g
bx f
bx e
bx d
bx c
bx b
bx a
bx `
bx _
bx ^
bx ]
bx \
bx [
bx Z
bx Y
bx X
bx W
bx V
bx U
bx T
bx S
bx R
bx Q
bx P
bx O
bx N
bx M
bx L
bx K
bx J
bx I
bx H
bx G
bx F
bx E
bx D
bx C
bx B
bx A
bx @
bx ?
bx >
bx =
bx <
bx ;
bx :
bx 9
bx 8
bx 7
bx 6
bx 5
bx 4
bx 3
bx 2
bx 1
bx 0
bx /
bx .
bx -
bx ,
bx +
b100 *
b0 )
bx (
bx '
0&
0%
bx $
0#
x"
bx !
$end
#5000
1#
#6000
b0 3"
b0 5"
b0 q
0r
#10000
0#
#15000
1#
#16000
0"
#20000
0#
b0 (
1&
#25000
1%
b1101011110000011011111011100010001011100100000010011111100101101110100100111101011111100001000101110011100100110001011100101010 '
b1101011110000011011111011100010001011100100000010011111100101101110100100111101011111100001000101110011100100110001011100101010 L
b101011011111100001010100010110001010001010111011010010101001101010101111110111000101011000100000001001110011110100111100111100 $
b101011011111100001010100010110001010001010111011010010101001101010101111110111000101011000100000001001110011110100111100111100 +
b101011011111100001010100010110001010001010111011010010101001101010101111110111000101011000100000001001110011110100111100111100 ,"
1#
#30000
0#
#35000
0%
1#
#36000
b10001010 9"
b10000100 ;"
b11101011 ="
b10001010100001001110101100000001 2"
b1 ?"
b11001111 8"
b1001111 :"
b111100 <"
b1001 >"
1r
b1101011110000011011111011100010001011100100000010011111100101101110100100111101011111100001000101110011100100110001011100101010 %"
b1011 q
b1001110011110100111100111100 P
b1001110011110100111100111100 1"
b1001110011110100111100111100 -"
b10101011111101110001010110001000 O
b10101011111101110001010110001000 0"
b101000101011101101001010100110 N
b101000101011101101001010100110 /"
b101011011111100001010100010110 M
b101011011111100001010100010110 ."
b1 4"
b0 6"
b1000000000000000000000000 3"
b1000000000000000000000000 5"
#40000
0#
#45000
b1 7"
1#
#46000
b1111011 F
b111001 >
b11010010 6
b11111 .
b1101101 H
b10010111 @
b10111001 8
b11000011 0
b1011100 J
b1010000 B
b1110110 :
b10010000 2
b11010101 D
b11101000 <
b1100101 4
b11110010 ,
b11001010 V
b10101 ^
b10000110 f
b10010111 n
b1010100 T
b10101110 \
b11010 d
b11100000 l
b1011001 R
b100110 Z
b11010 b
b10111010 j
b11000010 X
b10110 `
b10011111 h
b1010010 p
b1010000 9"
b111000 ;"
b1101011 ="
b1010000001110000110101111100101 2"
b11100101 ?"
b10111111 +"
b10111111 *"
b1101010 )"
b1110100 ("
b1101111 '"
b1101100 8"
b1110110 :"
b101 <"
b101010 >"
b1000111 E
b1000111 Q
b1000111 _"
b1101010 ?
b1101010 Y
b1101010 W"
b1001010 9
b1001010 a
b1001010 O"
b11011010 3
b11011010 i
b11011010 G"
b11101110 K
b11101110 S
b11101110 ]"
b1111111 =
b1111111 [
b1111111 U"
b1110100 7
b1110100 c
b1110100 M"
b101100 1
b101100 k
b101100 E"
b100 I
b100 U
b100 ["
b11100011 C
b11100011 ]
b11100011 S"
b101000 5
b101000 e
b101000 K"
b1101111 /
b1101111 m
b1101111 C"
b10111111 G
b10111111 W
b10111111 Y"
b1100010 A
b1100010 _
b1100010 Q"
b1000 ;
b1000 g
b1000 I"
b1001 -
b1001 o
b1001 A"
b10000000000000000000000000 3"
b10000000000000000000000000 5"
b10 4"
b1 6"
b10100000111110101111111000010111 M
b10100000111110101111111000010111 ."
b10001000010101000010110010110001 N
b10001000010101000010110010110001 /"
b100011101000110011100100111001 O
b100011101000110011100100111001 0"
b101010011011000111011000000101 P
b101010011011000111011000000101 1"
b101010011011000111011000000101 -"
b1010 q
0r
b10110 $"
b10110 ^"
b1011000 ~
b1011000 V"
b1011100 z
b1011100 N"
b1111010 v
b1111010 F"
b10011001 #"
b10011001 \"
b1101011 }
b1101011 T"
b11001010 y
b11001010 L"
b1000010 u
b1000010 D"
b110000 ""
b110000 Z"
b1001101 |
b1001101 R"
b11101110 x
b11101110 J"
b110 t
b110 B"
b11110100 !"
b11110100 X"
b10101011 {
b10101011 P"
b10111111 w
b10111111 H"
b1000000 s
b1000000 @"
#50000
0#
#55000
b10 7"
1#
#56000
b10000111 R
b1001101 Z
b11110000 b
b111001 j
b10010011 T
b1011000 \
b11001001 d
b10101110 l
b1011000 V
b110101 ^
b10011010 f
b110001 n
b101001 X
b11101001 `
b110001 h
b1111 p
b111100 +"
b111100 *"
b10010 )"
b1001101 ("
b1100000 '"
b11111000 J
b10111011 B
b10101001 :
b1001010 2
b11001011 9"
b1000010 ;"
b11010010 ="
b11001011010000101101001010001111 2"
b10001111 ?"
b11110111 0
b11111100 8
b11011000 @
b11101001 H
b1001011 .
b1100 6
b10001100 >
b11011 F
b11111101 ,
b11110011 4
b1111100 <
b11011011 D
b10001001 -
b10001001 o
b10001001 A"
b1001101 ;
b1001101 g
b1001101 I"
b10011011 A
b10011011 _
b10011011 Q"
b11 G
b11 W
b11 Y"
b11000000 /
b11000000 m
b11000000 C"
b10110101 5
b10110101 e
b10110101 K"
b10010 C
b10010 ]
b10010 S"
b100001 I
b100001 U
b100001 ["
b101110 1
b101110 k
b101110 E"
b1010110 7
b1010110 c
b1010110 M"
b10001000 =
b10001000 [
b10001000 U"
b111100 K
b111100 S
b111100 ]"
b1100000 3
b1100000 i
b1100000 G"
b111000 9
b111000 a
b111000 O"
b1010011 ?
b1010011 Y
b1010011 W"
b1001010 E
b1001010 Q
b1001010 _"
b1011001 8"
b11110110 :"
b1111111 <"
b1110011 >"
b10101001110100101000000101010000111001110010000001000110000011100000111111101001010110110011110111110000011001001001010111101011 !
b10101001110100101000000101010000111001110010000001000110000011100000111111101001010110110011110111110000011001001001010111101011 &"
b11110010 s
b11110010 @"
b1100101 w
b1100101 H"
b11101000 {
b11101000 P"
b11010101 !"
b11010101 X"
b11111 t
b11111 B"
b11010010 x
b11010010 J"
b111001 |
b111001 R"
b1111011 ""
b1111011 Z"
b11000011 u
b11000011 D"
b10111001 y
b10111001 L"
b10010111 }
b10010111 T"
b1101101 #"
b1101101 \"
b10010000 v
b10010000 F"
b1110110 z
b1110110 N"
b1010000 ~
b1010000 V"
b1011100 $"
b1011100 ^"
b1001 q
b1110011010110011111011001111111 P
b1110011010110011111011001111111 1"
b1110011010110011111011001111111 -"
b1011001001101011000000001111010 O
b1011001001101011000000001111010 0"
b1111010100101101011100101000011 N
b1111010100101101011100101000011 /"
b11110010110000101001010111110010 M
b11110010110000101001010111110010 ."
b11 4"
b10 6"
b100000000000000000000000000 3"
b100000000000000000000000000 5"
#60000
0#
#65000
b11 7"
1#
#66000
b11111101 V
b11100 ^
b1010100 f
b11100101 n
b111110 T
b1110001 \
b1001010 d
b1 l
b110100 R
b110001 Z
b1111110 b
b11011010 j
b11100001 X
b10101011 `
b1010001 h
b10010001 p
b10101100 ,
b11010001 4
b11101100 <
b10011100 D
b10100010 .
b1000010 6
b11100010 >
b11000011 F
b11111 0
b1101001 8
b1111 @
b1111010 H
b1111 J
b10111001 B
b100 :
b10110111 2
b11011010 9"
b11000100 ;"
b11100010 ="
b11011010110001001110001000111100 2"
b111100 ?"
b10111001 +"
b10111001 *"
b11101010 )"
b10110000 ("
b10110011 '"
b1111010 8"
b10001000 :"
b111011 <"
b1101101 >"
b1000001 E
b1000001 Q
b1000001 _"
b11101010 ?
b11101010 Y
b11101010 W"
b11010011 9
b11010011 a
b11010011 O"
b11010110 3
b11010110 i
b11010110 G"
b11110 K
b11110 S
b11110 ]"
b1100001 =
b1100001 [
b1100001 U"
b10110000 7
b10110000 c
b10110000 M"
b1101000 1
b1101000 k
b1101000 E"
b10101111 I
b10101111 U
b10101111 ["
b1100100 C
b1100100 ]
b1100100 S"
b11111110 5
b11111110 e
b11111110 K"
b10110011 /
b10110011 m
b10110011 C"
b10111001 G
b10111001 W
b10111001 Y"
b10000 A
b10000 _
b10000 Q"
b1101 ;
b1101 g
b1101 I"
b1010100 -
b1010100 o
b1010100 A"
b1000000000000000000000000000 3"
b1000000000000000000000000000 5"
b100 4"
b11 6"
b111101100000000100011101111101 M
b111101100000000100011101111101 ."
b1000111000101101111111000111110 N
b1000111000101101111111000111110 /"
b11110001000110111111001000100 O
b11110001000110111111001000100 0"
b1101101011110101000100000111011 P
b1101101011110101000100000111011 1"
b1101101011110101000100000111011 -"
b1000 q
b11111000 $"
b11111000 ^"
b10111011 ~
b10111011 V"
b10101001 z
b10101001 N"
b1001010 v
b1001010 F"
b11101001 #"
b11101001 \"
b11011000 }
b11011000 T"
b11111100 y
b11111100 L"
b11110111 u
b11110111 D"
b11011 ""
b11011 Z"
b10001100 |
b10001100 R"
b1100 x
b1100 J"
b1001011 t
b1001011 B"
b11011011 !"
b11011011 X"
b1111100 {
b1111100 P"
b11110011 w
b11110011 H"
b11111101 s
b11111101 @"
b1111011011101110001110110111000101110101100000011101010010000000111011100001101000110110101101100010011000101001110010001000011 !
b1111011011101110001110110111000101110101100000011101010010000000111011100001101000110110101101100010011000101001110010001000011 &"
#70000
0#
#75000
b100 7"
1#
#76000
b11101001 R
b11001001 Z
b10111100 b
b1001001 j
b111011 T
b11000111 \
b1011000 d
b1110110 l
b1000110 V
b10110 ^
b11110111 f
b11101100 n
b11110 X
b11001011 `
b100101 h
b1001101 p
b11011010 +"
b11011010 *"
b10011000 )"
b111110 ("
b10101001 '"
b11101001 J
b1100100 B
b10110111 :
b10010010 2
b101011 9"
b10010101 ;"
b1100011 ="
b101011100101010110001110111001 2"
b10111001 ?"
b11000000 0
b101001 8
b11100010 @
b0 H
b1000100 .
b10100101 6
b1001101 >
b111001 F
b10100010 ,
b1100001 4
b1101110 <
b1011111 D
b10010001 -
b10010001 o
b10010001 A"
b111110 ;
b111110 g
b111110 I"
b11001110 A
b11001110 _
b11001110 Q"
b11011110 G
b11011110 W
b11011110 Y"
b111010 /
b111010 m
b111010 C"
b101100 5
b101100 e
b101100 K"
b10011000 C
b10011000 ]
b10011000 S"
b101110 I
b101110 U
b101110 ["
b11000000 1
b11000000 k
b11000000 E"
b11111001 7
b11111001 c
b11111001 M"
b1110110 =
b1110110 [
b1110110 U"
b11011010 K
b11011010 S
b11011010 ]"
b10101001 3
b10101001 i
b10101001 G"
b11110010 9
b11110010 a
b11110010 O"
b1010110 ?
b1010110 Y
b1010110 W"
b1110110 E
b1110110 Q
b1110110 _"
b1011 8"
b10101101 :"
b0 <"
b11011011 >"
b1101001011111100010011000111100111101001010011000010100100001110111011011110000011011101110101110111011011101111110110000100101 !
b1101001011111100010011000111100111101001010011000010100100001110111011011110000011011101110101110111011011101111110110000100101 &"
b10101100 s
b10101100 @"
b11010001 w
b11010001 H"
b11101100 {
b11101100 P"
b10011100 !"
b10011100 X"
b10100010 t
b10100010 B"
b1000010 x
b1000010 J"
b11100010 |
b11100010 R"
b11000011 ""
b11000011 Z"
b11111 u
b11111 D"
b1101001 y
b1101001 L"
b1111 }
b1111 T"
b1111010 #"
b1111010 \"
b10110111 v
b10110111 F"
b100 z
b100 N"
b10111001 ~
b10111001 V"
b1111 $"
b1111 ^"
b111 q
b11011011000010111010110100000000 P
b11011011000010111010110100000000 1"
b11011011000010111010110100000000 -"
b10110110011100010010010100111011 O
b10110110011100010010010100111011 0"
b10101000010100100101101101111111 N
b10101000010100100101101101111111 /"
b11101111010001001010010101000001 M
b11101111010001001010010101000001 ."
b101 4"
b100 6"
b10000000000000000000000000000 3"
b10000000000000000000000000000 5"
#80000
0#
#85000
b101 7"
1#
#86000
b1001110 V
b1110010 ^
b1000000 f
b1001110 n
b11000111 T
b0 \
b1011011 d
b10 l
b11011 R
b11011000 Z
b11010111 b
b110100 j
b11101100 X
b110101 `
b10011011 h
b11111000 p
b101100 ,
b1001010 4
b11110011 <
b10100 D
b110010 .
b11000011 6
b11101111 >
b11001001 F
b11001000 0
b10101001 8
b10111000 @
b1111011 H
b10100111 J
b11001101 B
b101110 :
b100101 2
b10011001 9"
b1011001 ;"
b1100101 ="
b10011001010110010110010110000010 2"
b10000010 ?"
b1000011 )"
b11001111 +"
b11001111 *"
b10100101 ("
b11011 '"
b11111001 8"
b10101 :"
b10111100 <"
b10001 >"
b11110 E
b11110 Q
b11110 _"
b1000011 ?
b1000011 Y
b1000011 W"
b10101001 9
b10101001 a
b10101001 O"
b1001111 3
b1001111 i
b1001111 G"
b1100011 K
b1100011 S
b1100011 ]"
b10011000 =
b10011000 [
b10011000 U"
b10100101 7
b10100101 c
b10100101 M"
b10111010 1
b10111010 k
b10111010 E"
b10010 I
b10010 U
b10010 ["
b11100011 C
b11100011 ]
b11100011 S"
b110 5
b110 e
b110 K"
b11011 /
b11011 m
b11011 C"
b11001111 G
b11001111 W
b11001111 Y"
b10011111 A
b10011111 _
b10011111 Q"
b11101111 ;
b11101111 g
b11101111 I"
b111010 -
b111010 o
b111010 A"
b100000000000000000000000000000 3"
b100000000000000000000000000000 5"
b110 4"
b101 6"
b11010100110100011100011011111000 M
b11010100110100011100011011111000 ."
b1111100100000111001110110000111 N
b1111100100000111001110110000111 /"
b11001010111100101011100010111100 O
b11001010111100101011100010111100 0"
b10001111110010001010110111100 P
b10001111110010001010110111100 1"
b10001111110010001010110111100 -"
b110 q
b11101001 $"
b11101001 ^"
b1100100 ~
b1100100 V"
b10110111 z
b10110111 N"
b10010010 v
b10010010 F"
b0 #"
b0 \"
b11100010 }
b11100010 T"
b101001 y
b101001 L"
b11000000 u
b11000000 D"
b111001 ""
b111001 Z"
b1001101 |
b1001101 R"
b10100101 x
b10100101 J"
b1000100 t
b1000100 B"
b1011111 !"
b1011111 X"
b1101110 {
b1101110 P"
b1100001 w
b1100001 H"
b10100010 s
b10100010 @"
b1111110011010001101001100110111100100101010101100001101101000010111011010000011111010110001010101110010001101010011010111011010 !
b1111110011010001101001100110111100100101010101100001101101000010111011010000011111010110001010101110010001101010011010111011010 &"
#90000
0#
#95000
b110 7"
1#
#96000
b1010 R
b101111 Z
b11010011 b
b11100001 j
b10111110 T
b10111111 \
b1000000 d
b1001000 l
b11100100 V
b10000100 ^
b10111000 f
b1101111 n
b1101001 X
b1100011 `
b11000101 h
b10100000 p
b100001 +"
b100001 *"
b11011111 )"
b11010110 ("
b111111 '"
b11110111 J
b10111100 B
b11010011 :
b101011 2
b1100011 9"
b11011100 ;"
b1010100 ="
b1100011110111000101010001110100 2"
b1110100 ?"
b10010011 0
b10111001 8
b111001 @
b11111111 H
b1111110 .
b10110011 6
b10111010 >
b11001 F
b11001101 ,
b1001101 4
b11000000 <
b10011 D
b1110001 -
b1110001 o
b1110001 A"
b11010110 ;
b11010110 g
b11010110 I"
b1101 A
b1101 _
b1101 Q"
b11111010 G
b11111010 W
b11111010 Y"
b100011 /
b100011 m
b100011 C"
b101110 5
b101110 e
b101110 K"
b11011111 C
b11011111 ]
b11011111 S"
b11011101 I
b11011101 U
b11011101 ["
b11101000 1
b11101000 k
b11101000 E"
b11010011 7
b11010011 c
b11010011 M"
b1101100 =
b1101100 [
b1101100 U"
b100001 K
b100001 S
b100001 ]"
b111111 3
b111111 i
b111111 G"
b110001 9
b110001 a
b110001 O"
b10111101 ?
b10111101 Y
b10111101 W"
b1011100 E
b1011100 Q
b1011100 _"
b0 8"
b10010011 :"
b11111101 <"
b11001010 >"
b11101110110101110101111011100110011001110010011011011110010010000111000001011011001001111010111001011110000101101111011011011111 !
b11101110110101110101111011100110011001110010011011011110010010000111000001011011001001111010111001011110000101101111011011011111 &"
b101100 s
b101100 @"
b1001010 w
b1001010 H"
b11110011 {
b11110011 P"
b10100 !"
b10100 X"
b110010 t
b110010 B"
b11000011 x
b11000011 J"
b11101111 |
b11101111 R"
b11001001 ""
b11001001 Z"
b11001000 u
b11001000 D"
b10101001 y
b10101001 L"
b10111000 }
b10111000 T"
b1111011 #"
b1111011 \"
b100101 v
b100101 F"
b101110 z
b101110 N"
b11001101 ~
b11001101 V"
b10100111 $"
b10100111 ^"
b101 q
b11001010000000001001001111111101 P
b11001010000000001001001111111101 1"
b11001010000000001001001111111101 -"
b11011011111110011000011001000001 O
b11011011111110011000011001000001 0"
b10001000010110011111011111101 N
b10001000010110011111011111101 /"
b1101101100010001010001101111010 M
b1101101100010001010001101111010 ."
b111 4"
b110 6"
b1000000000000000000000000000000 3"
b1000000000000000000000000000000 5"
#100000
0#
#105000
b111 7"
1#
#106000
b11000111 V
b11101000 ^
b10001101 f
b11111 n
b10000 T
b10110010 \
b10001 d
b1100111 l
b110011 R
b11011011 Z
b111101 b
b100101 j
b1110011 X
b1001100 `
b111001 h
b10101100 p
b11100010 ,
b1101101 4
b10111011 <
b1111101 D
b1000000 .
b11010010 6
b100001 >
b110100 F
b11100011 0
b10110111 8
b11111101 @
b10100010 H
b1111100 J
b111 B
b10011011 :
b1101011 2
b100100 9"
b10000110 ;"
b10000100 ="
b100100100001101000010000101111 2"
b101111 ?"
b1111101 +"
b1111101 *"
b1100101 )"
b1010110 ("
b11110011 '"
b10100110 8"
b11011100 :"
b1001111 <"
b1001110 >"
b1101000 E
b1101000 Q
b1101000 _"
b1100101 ?
b1100101 Y
b1100101 W"
b1100110 9
b1100110 a
b1100110 O"
b11110001 3
b11110001 i
b11110001 G"
b10110 K
b10110 S
b10110 ]"
b10010 =
b10010 [
b10010 U"
b1010110 7
b1010110 c
b1010110 M"
b11011100 1
b11011100 k
b11011100 E"
b11010100 I
b11010100 U
b11010100 ["
b11110100 C
b11110100 ]
b11110100 S"
b1101101 5
b1101101 e
b1101101 K"
b11110011 /
b11110011 m
b11110011 C"
b1111101 G
b1111101 W
b1111101 Y"
b10111010 A
b10111010 _
b10111010 Q"
b11100011 ;
b11100011 g
b11100011 I"
b10111101 -
b10111101 o
b10111101 A"
b10000000000000000000000000000000 3"
b10000000000000000000000000000000 5"
b1000 4"
b111 6"
b1001110010101001111011100001110 M
b1001110010101001111011100001110 ."
b1011111010111111100100111110011 N
b1011111010111111100100111110011 /"
b10000100101001100100111110110010 O
b10000100101001100100111110110010 0"
b1001110101001101101110001001111 P
b1001110101001101101110001001111 1"
b1001110101001101101110001001111 -"
b100 q
b11110111 $"
b11110111 ^"
b10111100 ~
b10111100 V"
b11010011 z
b11010011 N"
b101011 v
b101011 F"
b11111111 #"
b11111111 \"
b111001 }
b111001 T"
b10111001 y
b10111001 L"
b10010011 u
b10010011 D"
b11001 ""
b11001 Z"
b10111010 |
b10111010 R"
b10110011 x
b10110011 J"
b1111110 t
b1111110 B"
b10011 !"
b10011 X"
b11000000 {
b11000000 P"
b1001101 w
b1001101 H"
b11001101 s
b11001101 @"
b11100101001101100111100100110001100101101100010000011000001110011001111001000100010111001110011110101110101100100110011011100 !
b11100101001101100111100100110001100101101100010000011000001110011001111001000100010111001110011110101110101100100110011011100 &"
#110000
0#
#115000
b1000 7"
1#
#116000
b110100 R
b11101100 Z
b100001 b
b1111101 j
b11111101 T
b11100010 \
b100 d
b11101100 l
b10010010 V
b101011 ^
b11101011 f
b11001000 n
b1110010 X
b10110101 `
b101 h
b10101011 p
b111010 +"
b111010 *"
b11111101 )"
b111100 ("
b1111111 '"
b11011 J
b11000101 B
b10101100 :
b10 2
b1011101 9"
b10100101 ;"
b10101 ="
b1011101101001010001010111010010 2"
b11010010 ?"
b11011101 0
b101111 8
b10111 @
b10011101 H
b1111101 .
b1100110 6
b10010001 >
b1000000 F
b1000001 ,
b11010111 4
b11000110 <
b1010011 D
b10011000 -
b10011000 o
b10011000 A"
b111100 ;
b111100 g
b111100 I"
b11101010 A
b11101010 _
b11101010 Q"
b11111111 G
b11111111 W
b11111111 Y"
b1001 /
b1001 m
b1001 C"
b10110101 5
b10110101 e
b10110101 K"
b11111101 C
b11111101 ]
b11111101 S"
b11000 I
b11000 U
b11000 ["
b10001 1
b10001 k
b10001 E"
b10101001 7
b10101001 c
b10101001 M"
b1010100 =
b1010100 [
b1010100 U"
b111010 K
b111010 S
b111010 ]"
b1111111 3
b1111111 i
b1111111 G"
b10100 9
b10100 a
b10100 O"
b11000101 ?
b11000101 Y
b11000101 W"
b10000 E
b10000 Q
b10000 _"
b10001101 8"
b101001 :"
b101111 <"
b1111111 >"
b11110011001110011110010101100110101011000000100110101100100011100101100011000000111101010110011010111111010001010010100001011001 !
b11110011001110011110010101100110101011000000100110101100100011100101100011000000111101010110011010111111010001010010100001011001 &"
b11100010 s
b11100010 @"
b1101101 w
b1101101 H"
b10111011 {
b10111011 P"
b1111101 !"
b1111101 X"
b1000000 t
b1000000 B"
b11010010 x
b11010010 J"
b100001 |
b100001 R"
b110100 ""
b110100 Z"
b11100011 u
b11100011 D"
b10110111 y
b10110111 L"
b11111101 }
b11111101 T"
b10100010 #"
b10100010 \"
b1101011 v
b1101011 F"
b10011011 z
b10011011 N"
b111 ~
b111 V"
b1111100 $"
b1111100 ^"
b11 q
b1111111100011010010100100101111 P
b1111111100011010010100100101111 1"
b1111111100011010010100100101111 -"
b110001001010111111010101100000 O
b110001001010111111010101100000 0"
b10110101100011011011101011010010 N
b10110101100011011011101011010010 /"
b11101010110100100111001100100001 M
b11101010110100100111001100100001 ."
b1001 4"
b1000 6"
b11011000000000000000000000000 3"
b11011000000000000000000000000 5"
#120000
0#
#125000
b1001 7"
1#
