ICLAD-Hackathon-2025/problem-categories/Qualcomm-Problems/buggy_rtl/team_8/aes_bug_v1/aes.vcd
$date
	Sun Jun 22 16:04:25 2025
$end
$version
	Icarus Verilog
$end
$timescale
	1ps
$end
$scope module tb_aes_cipher_top $end
$var wire 128 ! text_out [127:0] $end
$var wire 1 " done $end
$var reg 1 # clk $end
$var reg 128 $ key [127:0] $end
$var reg 1 % ld $end
$var reg 1 & rst $end
$var reg 128 ' text_in [127:0] $end
$var integer 32 ( i [31:0] $end
$var integer 32 ) pass_count [31:0] $end
$var integer 32 * total_tests [31:0] $end
$scope module uut $end
$var wire 1 # clk $end
$var wire 128 + key [127:0] $end
$var wire 1 % ld $end
$var wire 1 & rst $end
$var wire 8 , sa00_next [7:0] $end
$var wire 8 - sa00_sr [7:0] $end
$var wire 8 . sa01_next [7:0] $end
$var wire 8 / sa01_sr [7:0] $end
$var wire 8 0 sa02_next [7:0] $end
$var wire 8 1 sa02_sr [7:0] $end
$var wire 8 2 sa03_next [7:0] $end
$var wire 8 3 sa03_sr [7:0] $end
$var wire 8 4 sa10_next [7:0] $end
$var wire 8 5 sa10_sr [7:0] $end
$var wire 8 6 sa11_next [7:0] $end
$var wire 8 7 sa11_sr [7:0] $end
$var wire 8 8 sa12_next [7:0] $end
$var wire 8 9 sa12_sr [7:0] $end
$var wire 8 : sa13_next [7:0] $end
$var wire 8 ; sa13_sr [7:0] $end
$var wire 8 < sa20_next [7:0] $end
$var wire 8 = sa20_sr [7:0] $end
$var wire 8 > sa21_next [7:0] $end
$var wire 8 ? sa21_sr [7:0] $end
$var wire 8 @ sa22_next [7:0] $end
$var wire 8 A sa22_sr [7:0] $end
$var wire 8 B sa23_next [7:0] $end
$var wire 8 C sa23_sr [7:0] $end
$var wire 8 D sa30_next [7:0] $end
$var wire 8 E sa30_sr [7:0] $end
$var wire 8 F sa31_next [7:0] $end
$var wire 8 G sa31_sr [7:0] $end
$var wire 8 H sa32_next [7:0] $end
$var wire 8 I sa32_sr [7:0] $end
$var wire 8 J sa33_next [7:0] $end
$var wire 8 K sa33_sr [7:0] $end
$var wire 128 L text_in [127:0] $end
$var wire 32 M w0 [31:0] $end
$var wire 32 N w1 [31:0] $end
$var wire 32 O w3 [31:0] $end
$var wire 32 P w2 [31:0] $end
$var wire 8 Q sa33_sub [7:0] $end
$var wire 8 R sa33_mc [7:0] $end
$var wire 8 S sa32_sub [7:0] $end
$var wire 8 T sa32_mc [7:0] $end
$var wire 8 U sa31_sub [7:0] $end
$var wire 8 V sa31_mc [7:0] $end
$var wire 8 W sa30_sub [7:0] $end
$var wire 8 X sa30_mc [7:0] $end
$var wire 8 Y sa23_sub [7:0] $end
$var wire 8 Z sa23_mc [7:0] $end
$var wire 8 [ sa22_sub [7:0] $end
$var wire 8 \ sa22_mc [7:0] $end
$var wire 8 ] sa21_sub [7:0] $end
$var wire 8 ^ sa21_mc [7:0] $end
$var wire 8 _ sa20_sub [7:0] $end
$var wire 8 ` sa20_mc [7:0] $end
$var wire 8 a sa13_sub [7:0] $end
$var wire 8 b sa13_mc [7:0] $end
$var wire 8 c sa12_sub [7:0] $end
$var wire 8 d sa12_mc [7:0] $end
$var wire 8 e sa11_sub [7:0] $end
$var wire 8 f sa11_mc [7:0] $end
$var wire 8 g sa10_sub [7:0] $end
$var wire 8 h sa10_mc [7:0] $end
$var wire 8 i sa03_sub [7:0] $end
$var wire 8 j sa03_mc [7:0] $end
$var wire 8 k sa02_sub [7:0] $end
$var wire 8 l sa02_mc [7:0] $end
$var wire 8 m sa01_sub [7:0] $end
$var wire 8 n sa01_mc [7:0] $end
$var wire 8 o sa00_sub [7:0] $end
$var wire 8 p sa00_mc [7:0] $end
$var reg 4 q dcnt [3:0] $end
$var reg 1 " done $end
$var reg 1 r ld_r $end
$var reg 8 s sa00 [7:0] $end
$var reg 8 t sa01 [7:0] $end
$var reg 8 u sa02 [7:0] $end
$var reg 8 v sa03 [7:0] $end
$var reg 8 w sa10 [7:0] $end
$var reg 8 x sa11 [7:0] $end
$var reg 8 y sa12 [7:0] $end
$var reg 8 z sa13 [7:0] $end
$var reg 8 { sa20 [7:0] $end
$var reg 8 | sa21 [7:0] $end
$var reg 8 } sa22 [7:0] $end
$var reg 8 ~ sa23 [7:0] $end
$var reg 8 !" sa30 [7:0] $end
$var reg 8 "" sa31 [7:0] $end
$var reg 8 #" sa32 [7:0] $end
$var reg 8 $" sa33 [7:0] $end
$var reg 128 %" text_in_r [127:0] $end
$var reg 128 &" text_out [127:0] $end
$scope function mix_col $end
$var reg 8 '" s0 [7:0] $end
$var reg 8 (" s1 [7:0] $end
$var reg 8 )" s2 [7:0] $end
$var reg 8 *" s3 [7:0] $end
$upscope $end
$scope function xtime $end
$var reg 8 +" b [7:0] $end
$upscope $end
$scope module u0 $end
$var wire 1 # clk $end
$var wire 128 ," key [127:0] $end
$var wire 1 % kld $end
$var wire 32 -" tmp_w [31:0] $end
$var wire 32 ." wo_0 [31:0] $end
$var wire 32 /" wo_1 [31:0] $end
$var wire 32 0" wo_2 [31:0] $end
$var wire 32 1" wo_3 [31:0] $end
$var wire 32 2" subword [31:0] $end
$var wire 32 3" rcon [31:0] $end
$scope module r0 $end
$var wire 1 # clk $end
$var wire 1 % kld $end
$var wire 4 4" rcnt_next [3:0] $end
$var reg 32 5" out [31:0] $end
$var reg 4 6" rcnt [3:0] $end
$scope function frcon $end
$var reg 4 7" i [3:0] $end
$upscope $end
$upscope $end
$scope module u0 $end
$var wire 8 8" a [7:0] $end
$var reg 8 9" d [7:0] $end
$upscope $end
$scope module u1 $end
$var wire 8 :" a [7:0] $end
$var reg 8 ;" d [7:0] $end
$upscope $end
$scope module u2 $end
$var wire 8 <" a [7:0] $end
$var reg 8 =" d [7:0] $end
$upscope $end
$scope module u3 $end
$var wire 8 >" a [7:0] $end
$var reg 8 ?" d [7:0] $end
$upscope $end
$upscope $end
$scope module us00 $end
$var wire 8 @" a [7:0] $end
$var reg 8 A" d [7:0] $end
$upscope $end
$scope module us01 $end
$var wire 8 B" a [7:0] $end
$var reg 8 C" d [7:0] $end
$upscope $end
$scope module us02 $end
$var wire 8 D" a [7:0] $end
$var reg 8 E" d [7:0] $end
$upscope $end
$scope module us03 $end
$var wire 8 F" a [7:0] $end
$var reg 8 G" d [7:0] $end
$upscope $end
$scope module us10 $end
$var wire 8 H" a [7:0] $end
$var reg 8 I" d [7:0] $end
$upscope $end
$scope module us11 $end
$var wire 8 J" a [7:0] $end
$var reg 8 K" d [7:0] $end
$upscope $end
$scope module us12 $end
$var wire 8 L" a [7:0] $end
$var reg 8 M" d [7:0] $end
$upscope $end
$scope module us13 $end
$var wire 8 N" a [7:0] $end
$var reg 8 O" d [7:0] $end
$upscope $end
$scope module us20 $end
$var wire 8 P" a [7:0] $end
$var reg 8 Q" d [7:0] $end
$upscope $end
$scope module us21 $end
$var wire 8 R" a [7:0] $end
$var reg 8 S" d [7:0] $end
$upscope $end
$scope module us22 $end
$var wire 8 T" a [7:0] $end
$var reg 8 U" d [7:0] $end
$upscope $end
$scope module us23 $end
$var wire 8 V" a [7:0] $end
$var reg 8 W" d [7:0] $end
$upscope $end
$scope module us30 $end
$var wire 8 X" a [7:0] $end
$var reg 8 Y" d [7:0] $end
$upscope $end
$scope module us31 $end
$var wire 8 Z" a [7:0] $end
$var reg 8 [" d [7:0] $end
$upscope $end
$scope module us32 $end
$var wire 8 \" a [7:0] $end
$var reg 8 ]" d [7:0] $end
$upscope $end
$scope module us33 $end
$var wire 8 ^" a [7:0] $end
$var reg 8 _" d [7:0] $end
$upscope $end
$upscope $end
$upscope $end
$enddefinitions $end
#0
$dumpvars
bx _"
bx ^"
bx ]"
bx \"
bx ["
bx Z"
bx Y"
bx X"
bx W"
bx V"
bx U"
bx T"
bx S"
bx R"
bx Q"
bx P"
bx O"
bx N"
bx M"
bx L"
bx K"
bx J"
bx I"
bx H"
bx G"
bx F"
bx E"
bx D"
bx C"
bx B"
bx A"
bx @"
bx ?"
bx >"
bx ="
bx <"
bx ;"
bx :"
bx 9"
bx 8"
bx 7"
bx 6"
bx 5"
bx 4"
bx 3"
bx 2"
bx 1"
bx 0"
bx /"
bx ."
bx -"
bx ,"
bx +"
bx *"
bx )"
bx ("
bx '"
bx &"
bx %"
bx $"
bx #"
bx ""
bx !"
bx ~
bx }
bx |
bx {
bx z
bx y
bx x
bx w
bx v
bx u
bx t
bx s
xr
bx q
bx p
bx o
bx n
bx m
bx l
bx k
bx j
bx i
bx h
bx g
bx f
bx e
bx d
bx c
bx b
bx a
bx `
bx _
bx ^
bx ]
bx \
bx [
bx Z
bx Y
bx X
bx W
bx V
bx U
bx T
bx S
bx R
bx Q
bx P
bx O
bx N
bx M
bx L
bx K
bx J
bx I
bx H
bx G
bx F
bx E
bx D
bx C
bx B
bx A
bx @
bx ?
bx >
bx =
bx <
bx ;
bx :
bx 9
bx 8
bx 7
bx 6
bx 5
bx 4
bx 3
bx 2
bx 1
bx 0
bx /
bx .
bx -
bx ,
bx +
b100 *
b0 )
bx (
bx '
0&
0%
bx $
0#
x"
bx !
$end
#5000
1#
#6000
b0 3"
b0 5"
b0 q
0r
#10000
0#
#15000
1#
#16000
0"
#20000
0#
b0 (
1&
#25000
1%
b1101011110000011011111011100010001011100100000010011111100101101110100100111101011111100001000101110011100100110001011100101010 '
b1101011110000011011111011100010001011100100000010011111100101101110100100111101011111100001000101110011100100110001011100101010 L
b101011011111100001010100010110001010001010111011010010101001101010101111110111000101011000100000001001110011110100111100111100 $
b101011011111100001010100010110001010001010111011010010101001101010101111110111000101011000100000001001110011110100111100111100 +
b101011011111100001010100010110001010001010111011010010101001101010101111110111000101011000100000001001110011110100111100111100 ,"
1#
#30000
0#
#35000
0%
1#
#36000
b1101000 9"
b1011001 ;"
b11000100 ="
b1101000010110011100010001100010 2"
b1100010 ?"
b11110111 8"
b10101 :"
b10001000 <"
b10101011 >"
1r
b1101011110000011011111011100010001011100100000010011111100101101110100100111101011111100001000101110011100100110001011100101010 %"
b1011 q
b1001110011110100111100111100 O
b1001110011110100111100111100 1"
b10101011111101110001010110001000 P
b10101011111101110001010110001000 0"
b10101011111101110001010110001000 -"
b101000101011101101001010100110 N
b101000101011101101001010100110 /"
b101011011111100001010100010110 M
b101011011111100001010100010110 ."
b1 4"
b0 6"
b1000000000000000000000000 3"
b1000000000000000000000000 5"
#40000
0#
#45000
b1 7"
1#
#46000
b11000 F
b10110 >
b1111 6
b11111101 .
b1110 H
b10111000 @
b1100100 8
b100001 0
b111111 J
b1111111 B
b10101011 :
b1110010 2
b10110110 D
b11000111 <
b10111000 4
b10000 ,
b11001010 V
b10101 ^
b10000110 f
b10010111 n
b1010100 T
b10101110 \
b11010 d
b11100000 l
b1011001 R
b100110 Z
b11010 b
b10111010 j
b11000010 X
b10110 `
b10011111 h
b1010010 p
b11110011 9"
b1000111 ;"
b10111110 ="
b11110011010001111011111001111000 2"
b1111000 ?"
b10111111 +"
b10111111 *"
b1101010 )"
b1110100 ("
b1101111 '"
b1111110 8"
b10110 :"
b1011010 <"
b11000001 >"
b1000111 E
b1000111 Q
b1000111 _"
b1101010 ?
b1101010 Y
b1101010 W"
b1001010 9
b1001010 a
b1001010 O"
b11011010 3
b11011010 i
b11011010 G"
b11101110 K
b11101110 S
b11101110 ]"
b1111111 =
b1111111 [
b1111111 U"
b1110100 7
b1110100 c
b1110100 M"
b101100 1
b101100 k
b101100 E"
b100 I
b100 U
b100 ["
b11100011 C
b11100011 ]
b11100011 S"
b101000 5
b101000 e
b101000 K"
b1101111 /
b1101111 m
b1101111 C"
b10111111 G
b10111111 W
b10111111 Y"
b1100010 A
b1100010 _
b1100010 Q"
b1000 ;
b1000 g
b1000 I"
b1001 -
b1001 o
b1001 A"
b10000000000000000000000000 3"
b10000000000000000000000000 5"
b10 4"
b1 6"
b1000010001001111101000101110100 M
b1000010001001111101000101110100 ."
b1101010100010010000001111010010 N
b1101010100010010000001111010010 /"
b11000001011111100001011001011010 P
b11000001011111100001011001011010 0"
b11000001011111100001011001011010 -"
b11001000101100010101100101100110 O
b11001000101100010101100101100110 1"
b1010 q
0r
b10110 $"
b10110 ^"
b1011000 ~
b1011000 V"
b1011100 z
b1011100 N"
b1111010 v
b1111010 F"
b10011001 #"
b10011001 \"
b1101011 }
b1101011 T"
b11001010 y
b11001010 L"
b1000010 u
b1000010 D"
b110000 ""
b110000 Z"
b1001101 |
b1001101 R"
b11101110 x
b11101110 J"
b110 t
b110 B"
b11110100 !"
b11110100 X"
b10101011 {
b10101011 P"
b10111111 w
b10111111 H"
b1000000 s
b1000000 @"
#50000
0#
#55000
b10 7"
1#
#56000
b10100110 R
b1000100 Z
b11111010 b
b11011000 j
b11111001 T
b11100100 \
b11000101 d
b101100 l
b11110001 V
b1111010 ^
b11110001 f
b11110001 n
b10110101 X
b11111011 `
b11100111 h
b1100 p
b10101011 +"
b10101011 *"
b1000111 )"
b1101100 ("
b1000000 '"
b1000 2
b11011100 :
b1100111 B
b1000100 J
b1111101 H
b10011110 @
b1010010 8
b110100 0
b10001000 9"
b11011010 ;"
b1011111 ="
b10001000110110100101111110101101 2"
b10101101 ?"
b101000 .
b11000 6
b10110 >
b101111 F
b10111111 ,
b10000111 4
b10010100 <
b10111001 D
b11001010 -
b11001010 o
b11001010 A"
b1101100 ;
b1101100 g
b1101100 I"
b11000110 A
b11000110 _
b11000110 Q"
b1001110 G
b1001110 W
b1001110 Y"
b1010100 /
b1010100 m
b1010100 C"
b1110110 5
b1110110 e
b1110110 K"
b1000111 C
b1000111 ]
b1000111 S"
b10101101 I
b10101101 U
b10101101 ["
b11111101 1
b11111101 k
b11111101 E"
b1000011 7
b1000011 c
b1000011 M"
b1101100 =
b1101100 [
b1101100 U"
b10101011 K
b10101011 S
b10101011 ]"
b1000000 3
b1000000 i
b1000000 G"
b1100010 9
b1100010 a
b1100010 O"
b11010010 ?
b11010010 Y
b11010010 W"
b1110101 E
b1110101 Q
b1110101 _"
b10010111 8"
b1111010 :"
b10000100 <"
b11000 >"
b1001011000011111010111000110011000001011111110101101001011011011110110100110100011101000101111000010010101110011011101010001000 !
b1001011000011111010111000110011000001011111110101101001011011011110110100110100011101000101111000010010101110011011101010001000 &"
b10000 s
b10000 @"
b10111000 w
b10111000 H"
b11000111 {
b11000111 P"
b10110110 !"
b10110110 X"
b11111101 t
b11111101 B"
b1111 x
b1111 J"
b10110 |
b10110 R"
b11000 ""
b11000 Z"
b100001 u
b100001 D"
b1100100 y
b1100100 L"
b10111000 }
b10111000 T"
b1110 #"
b1110 \"
b1110010 v
b1110010 F"
b10101011 z
b10101011 N"
b1111111 ~
b1111111 V"
b111111 $"
b111111 ^"
b1001 q
b11010000001001100010001111100010 O
b11010000001001100010001111100010 1"
b11000100101110111101010000100 P
b11000100101110111101010000100 0"
b11000100101110111101010000100 -"
b11011001111010010110110011011110 N
b11011001111010010110110011011110 /"
b10110011011000000110111100001100 M
b10110011011000000110111100001100 ."
b11 4"
b10 6"
b100000000000000000000000000 3"
b100000000000000000000000000 5"
#60000
0#
#65000
b11 7"
1#
#66000
b1110101 V
b11011111 ^
b11110110 f
b10111011 n
b10100110 T
b11100101 \
b1111100 d
b10010110 l
b11100101 R
b10110011 Z
b101000 b
b11100001 j
b10001000 X
b10011110 `
b1001111 h
b11101100 p
b11010011 ,
b11110101 4
b10101110 <
b101001 D
b1011101 .
b10100101 6
b10000011 >
b1010 F
b1011101 H
b11000011 @
b10111000 8
b1101000 0
b11100 9"
b11110111 ;"
b1111 ="
b11100111101110000111110111011 2"
b10111011 ?"
b11001111 2
b11001010 :
b10110110 B
b11111100 J
b1010110 +"
b1010110 *"
b10000101 )"
b0 ("
b110100 '"
b11000100 8"
b100110 :"
b11111011 <"
b11111110 >"
b11011 E
b11011 Q
b11011 _"
b10000101 ?
b10000101 Y
b10000101 W"
b10000110 9
b10000110 a
b10000110 O"
b110000 3
b110000 i
b110000 G"
b11111111 K
b11111111 S
b11111111 ]"
b1011 =
b1011 [
b1011 U"
b0 7
b0 c
b0 M"
b11000 1
b11000 k
b11000 E"
b10101 I
b10101 U
b10101 ["
b10101101 5
b10101101 e
b10101101 K"
b110100 /
b110100 m
b110100 C"
b1010110 G
b1010110 W
b1010110 Y"
b100010 A
b100010 _
b100010 Q"
b10111 ;
b10111 g
b10111 I"
b1000 -
b1000 o
b1000 A"
b1000000000000000000000000000 3"
b1000000000000000000000000000 5"
b100 4"
b11 6"
b111111101110100011000010100001 M
b111111101110100011000010100001 ."
b11100110010100110101110001111111 N
b11100110010100110101110001111111 /"
b11111110110001000010011011111011 P
b11111110110001000010011011111011 0"
b11111110110001000010011011111011 -"
b101110111000100000010100011001 O
b101110111000100000010100011001 1"
b1000 q
b1000100 $"
b1000100 ^"
b1100111 ~
b1100111 V"
b11011100 z
b11011100 N"
b1000 v
b1000 F"
b1111101 #"
b1111101 \"
b10011110 }
b10011110 T"
b1010010 y
b1010010 L"
b110100 u
b110100 D"
b101111 ""
b101111 Z"
b11000 x
b11000 J"
b101000 t
b101000 B"
b10111001 !"
b10111001 X"
b10010100 {
b10010100 P"
b10000111 w
b10000111 H"
b10111111 s
b10111111 @"
b1111001000101100000001101111001100011011010101010111110100100001110010111110101101111000010100110010000010010100110010001001001 !
b1111001000101100000001101111001100011011010101010111110100100001110010111110101101111000010100110010000010010100110010001001001 &"
#70000
0#
#75000
b100 7"
1#
#76000
b10111 R
b1111011 Z
b111110 b
b10011110 j
b10010001 T
b1001011 \
b11111101 d
b10010101 l
b10100111 V
b1001000 ^
b11100011 f
b11000111 n
b11111001 X
b11110111 `
b10101000 h
b1011000 p
b1001100 +"
b1001100 *"
b11101100 )"
b11100110 ("
b10001010 '"
b10000011 2
b110 :
b111011 B
b10010000 J
b1111 H
b1110 @
b100111 8
b10100110 0
b1010111 9"
b1101110 ;"
b1011 ="
b1010111011011100000101111000011 2"
b11000011 ?"
b1010 .
b11111101 6
b101011 >
b11000010 F
b1110011 ,
b11100101 4
b11001000 <
b11100011 D
b1100110 -
b1100110 o
b1100110 A"
b11100110 ;
b11100110 g
b11100110 I"
b11100100 A
b11100100 _
b11100100 Q"
b10100101 G
b10100101 W
b10100101 Y"
b1001100 /
b1001100 m
b1001100 C"
b110 5
b110 e
b110 K"
b11101100 C
b11101100 ]
b11101100 S"
b1100111 I
b1100111 U
b1100111 ["
b1000101 1
b1000101 k
b1000101 E"
b1101100 7
b1101100 c
b1101100 M"
b101110 =
b101110 [
b101110 U"
b1001100 K
b1001100 S
b1001100 ]"
b10001010 3
b10001010 i
b10001010 G"
b1110100 9
b1110100 a
b1110100 O"
b1001110 ?
b1001110 Y
b1001110 W"
b10110000 E
b10110000 Q
b10110000 _"
b11011010 8"
b1000101 :"
b10011110 <"
b110011 >"
b110111000101110011101110111010110100100101001111011001001010011110011001000010000001001110111000011110111101010100001011100110 !
b110111000101110011101110111010110100100101001111011001001010011110011001000010000001001110111000011110111101010100001011100110 &"
b11010011 s
b11010011 @"
b11110101 w
b11110101 H"
b10101110 {
b10101110 P"
b101001 !"
b101001 X"
b1011101 t
b1011101 B"
b10100101 x
b10100101 J"
b10000011 |
b10000011 R"
b1010 ""
b1010 Z"
b1101000 u
b1101000 D"
b10111000 y
b10111000 L"
b11000011 }
b11000011 T"
b1011101 #"
b1011101 \"
b11001111 v
b11001111 F"
b11001010 z
b11001010 N"
b10110110 ~
b10110110 V"
b11111100 $"
b11111100 ^"
b111 q
b11101001110000100000010000111 O
b11101001110000100000010000111 1"
b110011110110100100010110011110 P
b110011110110100100010110011110 0"
b110011110110100100010110011110 -"
b11001101000111100110001101100101 N
b11001101000111100110001101100101 /"
b101011010011010011111100011010 M
b101011010011010011111100011010 ."
b101 4"
b100 6"
b10000000000000000000000000000 3"
b10000000000000000000000000000 5"
#80000
0#
#85000
b101 7"
1#
#86000
b10100101 V
b1000111 ^
b11001000 f
b1110010 n
b10100001 T
b11101111 \
b11111100 d
b110100 l
b11101011 R
b1010110 Z
b111011 b
b110100 j
b10110101 X
b110110 `
b10100001 h
b110010 p
b1011110 ,
b10000010 4
b10 <
b1101100 D
b11010011 .
b11110101 6
b10000 >
b11001 F
b10000011 H
b11111101 @
b11011 8
b10100110 0
b10010100 9"
b11001001 ;"
b10010011 ="
b10010100110010011001001101001111 2"
b1001111 ?"
b10111011 2
b11100100 :
b100 B
b1001110 J
b10001 +"
b10001 *"
b11100010 )"
b11001100 ("
b1100111 '"
b11100111 8"
b10010 :"
b100010 <"
b10010010 >"
b1100000 E
b1100000 Q
b1100000 _"
b11100010 ?
b11100010 Y
b11100010 W"
b1101111 9
b1101111 a
b1101111 O"
b11101100 3
b11101100 i
b11101100 G"
b1110110 K
b1110110 S
b1110110 ]"
b10101011 =
b10101011 [
b10101011 U"
b11001100 7
b11001100 c
b11001100 M"
b100100 1
b100100 k
b100100 E"
b100101 I
b100101 U
b100101 ["
b11110001 C
b11110001 ]
b11110001 S"
b1010100 5
b1010100 e
b1010100 K"
b1100111 /
b1100111 m
b1100111 C"
b10001 G
b10001 W
b10001 Y"
b11101000 A
b11101000 _
b11101000 Q"
b11011001 ;
b11011001 g
b11011001 I"
b10001111 -
b10001111 o
b10001111 A"
b100000000000000000000000000000 3"
b100000000000000000000000000000 5"
b110 4"
b101 6"
b1101100001000110011010011011001 M
b1101100001000110011010011011001 ."
b10100001001111010101011110111100 N
b10100001001111010101011110111100 /"
b10010010111001110001001000100010 P
b10010010111001110001001000100010 0"
b10010010111001110001001000100010 -"
b10001111110111110101001010100101 O
b10001111110111110101001010100101 1"
b110 q
b10010000 $"
b10010000 ^"
b111011 ~
b111011 V"
b110 z
b110 N"
b10000011 v
b10000011 F"
b1111 #"
b1111 \"
b1110 }
b1110 T"
b100111 y
b100111 L"
b10100110 u
b10100110 D"
b11000010 ""
b11000010 Z"
b101011 |
b101011 R"
b11111101 x
b11111101 J"
b1010 t
b1010 B"
b11100011 !"
b11100011 X"
b11001000 {
b11001000 P"
b11100101 w
b11100101 H"
b1110011 s
b1110011 @"
b1001101010010110001000110101010100000010111001000101101110000000111011010101110101000011111100110010111110111101010110011001011 !
b1001101010010110001000110101010100000010111001000101101110000000111011010101110101000011111100110010111110111101010110011001011 &"
#90000
0#
#95000
b110 7"
1#
#96000
b111111 R
b1011001 Z
b1100101 b
b11011100 j
b11000001 T
b11000100 \
b10111011 d
b1010000 l
b1010111 V
b11000110 ^
b1111110 f
b10000100 n
b100 X
b1100111 `
b1011100 h
b11111010 p
b11101100 +"
b11101100 *"
b11001010 )"
b10011 ("
b11101010 '"
b10111000 2
b10001010 :
b11101001 B
b10010010 J
b11001001 H
b100110 @
b10001011 8
b10111011 0
b100 9"
b10011000 ;"
b110000 ="
b100100110000011000011101001 2"
b11101001 ?"
b11111101 .
b10101001 6
b110110 >
b1111101 F
b100010 ,
b10110110 4
b11000000 <
b10010010 D
b1011000 -
b1011000 o
b1011000 A"
b10011 ;
b10011 g
b10011 I"
b1110111 A
b1110111 _
b1110111 Q"
b1010000 G
b1010000 W
b1010000 Y"
b1100110 /
b1100110 m
b1100110 C"
b11100110 5
b11100110 e
b11100110 K"
b11001010 C
b11001010 ]
b11001010 S"
b11010100 I
b11010100 U
b11010100 ["
b10101111 7
b10101111 c
b10101111 M"
b1010100 =
b1010100 [
b1010100 U"
b11101100 K
b11101100 S
b11101100 ]"
b11101010 3
b11101010 i
b11101010 G"
b1101001 9
b1101001 a
b1101001 O"
b11110010 ?
b11110010 Y
b11110010 W"
b101111 E
b101111 Q
b101111 _"
b110000 8"
b11100010 :"
b1000 <"
b11101011 >"
b11100011011101111001111110111001110001101111000110110101101011011011011010001000111110100000011101100011000001101010001111010011 !
b11100011011101111001111110111001110001101111000110110101101011011011011010001000111110100000011101100011000001101010001111010011 &"
b1011110 s
b1011110 @"
b10000010 w
b10000010 H"
b10 {
b10 P"
b1101100 !"
b1101100 X"
b11010011 t
b11010011 B"
b11110101 x
b11110101 J"
b10000 |
b10000 R"
b11001 ""
b11001 Z"
b11011 y
b11011 L"
b11111101 }
b11111101 T"
b10000011 #"
b10000011 \"
b10111011 v
b10111011 F"
b11100100 z
b11100100 N"
b100 ~
b100 V"
b1001110 $"
b1001110 ^"
b101 q
b1100100111011111011000010101101 O
b1100100111011111011000010101101 1"
b11101011001100001110001000001000 P
b11101011001100001110001000001000 0"
b11101011001100001110001000001000 -"
b1111001110101111111000000101010 N
b1111001110101111111000000101010 /"
b11011000111010101010011110010110 M
b11011000111010101010011110010110 ."
b111 4"
b110 6"
b1000000000000000000000000000000 3"
b1000000000000000000000000000000 5"
#100000
0#
#105000
b111 7"
1#
#106000
b1000001 V
b10000100 ^
b1000011 f
b10111110 n
b100 T
b11100001 \
b111100 d
b1000 l
b1011110 R
b1010100 Z
b100010 b
b11010010 j
b10100 X
b1100100 `
b1100011 h
b11101011 p
b1110111 ,
b10001 4
b11110011 <
b1101011 D
b1011011 .
b11100110 6
b11100011 >
b10100 F
b1011001 H
b1100100 @
b10101001 8
b110 0
b101010 9"
b10010111 ;"
b1001100 ="
b101010100101110100110010101011 2"
b10101011 ?"
b10111000 2
b1011000 :
b1100001 B
b10101110 J
b1001111 +"
b1001111 *"
b11110 )"
b111101 ("
b1010100 '"
b10010101 8"
b10000101 :"
b1011101 <"
b1110 >"
b1001111 E
b1001111 Q
b1001111 _"
b11110 ?
b11110 Y
b11110 W"
b1111110 9
b1111110 a
b1111110 O"
b1101100 3
b1101100 i
b1101100 G"
b11011101 K
b11011101 S
b11011101 ]"
b11110111 =
b11110111 [
b11110111 U"
b111101 7
b111101 c
b111101 M"
b11101010 1
b11101010 k
b11101010 E"
b11111111 I
b11111111 U
b11111111 ["
b101 C
b101 ]
b101 S"
b11010011 5
b11010011 e
b11010011 K"
b1010100 /
b1010100 m
b1010100 C"
b1001111 G
b1001111 W
b1001111 Y"
b10111010 A
b10111010 _
b10111010 Q"
b1001110 ;
b1001110 g
b1001110 I"
b10010011 -
b10010011 o
b10010011 A"
b10000000000000000000000000000000 3"
b10000000000000000000000000000000 5"
b1000 4"
b111 6"
b10011100011100101001011101111111 M
b10011100011100101001011101111111 ."
b11100101101001010110011101010101 N
b11100101101001010110011101010101 /"
b1110100101011000010101011101 P
b1110100101011000010101011101 0"
b1110100101011000010101011101 -"
b1101010011110100011010111110000 O
b1101010011110100011010111110000 1"
b100 q
b10010010 $"
b10010010 ^"
b11101001 ~
b11101001 V"
b10001010 z
b10001010 N"
b10111000 v
b10111000 F"
b11001001 #"
b11001001 \"
b100110 }
b100110 T"
b10001011 y
b10001011 L"
b10111011 u
b10111011 D"
b1111101 ""
b1111101 Z"
b110110 |
b110110 R"
b10101001 x
b10101001 J"
b11111101 t
b11111101 B"
b10010010 !"
b10010010 X"
b11000000 {
b11000000 P"
b10110110 w
b10110110 H"
b100010 s
b100010 @"
b10000000000011001111001110111001000111110111100000000010011110101100111101011001100101011101110010001110111111000111101001000001 !
b10000000000011001111001110111001000111110111100000000010011110101100111101011001100101011101110010001110111111000111101001000001 &"
#110000
0#
#115000
b1000 7"
1#
#116000
b10101010 R
b10001010 Z
b10001011 b
b10011111 j
b111001 T
b1010 \
b1010110 d
b10010111 l
b10001001 V
b10101110 ^
b11010001 f
b10001100 n
b11010 X
b11001010 `
b11010011 h
b11011111 p
b11001011 +"
b11001011 *"
b10001 )"
b10000010 ("
b1101100 '"
b101000 2
b100100 :
b10000110 B
b10000110 J
b11100101 H
b110011 @
b10000011 8
b1001010 0
b11 9"
b10010 ;"
b10000110 ="
b11000100101000011011000001 2"
b11000001 ?"
b1011111 .
b10010001 6
b10010 >
b1000 F
b11101001 ,
b110110 4
b10001 <
b11001110 D
b11110101 -
b11110101 o
b11110101 A"
b10000010 ;
b10000010 g
b10000010 I"
b1101 A
b1101 _
b1101 Q"
b1111111 G
b1111111 W
b1111111 Y"
b111001 /
b111001 m
b111001 C"
b10001110 5
b10001110 e
b10001110 K"
b10001 C
b10001 ]
b10001 S"
b11111010 I
b11111010 U
b11111010 ["
b1101111 1
b1101111 k
b1101111 E"
b11010011 7
b11010011 c
b11010011 M"
b1000011 =
b1000011 [
b1000011 U"
b11001011 K
b11001011 S
b11001011 ]"
b1101010 9
b1101010 a
b1101010 O"
b11101111 ?
b11101111 Y
b11101111 W"
b11100100 E
b11100100 Q
b11100100 _"
b11010101 8"
b111001 :"
b11011100 <"
b11011101 >"
b1111101000010110000000110000101100011001100001111001000110101110010011101011001111111010001000000110001101000011000000101101 !
b1111101000010110000000110000101100011001100001111001000110101110010011101011001111111010001000000110001101000011000000101101 &"
b1110111 s
b1110111 @"
b10001 w
b10001 H"
b11110011 {
b11110011 P"
b1101011 !"
b1101011 X"
b1011011 t
b1011011 B"
b11100110 x
b11100110 J"
b11100011 |
b11100011 R"
b10100 ""
b10100 Z"
b110 u
b110 D"
b10101001 y
b10101001 L"
b1100100 }
b1100100 T"
b1011001 #"
b1011001 \"
b1011000 z
b1011000 N"
b1100001 ~
b1100001 V"
b10101110 $"
b10101110 ^"
b11 q
b10110111101011110000110000101100 O
b10110111101011110000110000101100 1"
b11011101110101010011100111011100 P
b11011101110101010011100111011100 0"
b11011101110101010011100111011100 -"
b11010011010000001011110010000001 N
b11010011010000001011110010000001 /"
b110110111001011101101111010100 M
b110110111001011101101111010100 ."
b1001 4"
b1000 6"
b11011000000000000000000000000 3"
b11011000000000000000000000000 5"
#120000
0#
#125000
b1001 7"
1#
